<?xml version="1.0" encoding="UTF-8" standalone="no"?>
<!-- Created with Inkscape (http://www.inkscape.org/) -->

<svg
   width="400mm"
   height="200mm"
   viewBox="0 0 400 200"
   version="1.1"
   id="svg5"
   xml:space="preserve"
   inkscape:version="1.2.1 (9c6d41e410, 2022-07-14)"
   sodipodi:docname="matrix.svg"
   inkscape:export-filename="matrix.png"
   inkscape:export-xdpi="96"
   inkscape:export-ydpi="96"
   xmlns:inkscape="http://www.inkscape.org/namespaces/inkscape"
   xmlns:sodipodi="http://sodipodi.sourceforge.net/DTD/sodipodi-0.dtd"
   xmlns:xlink="http://www.w3.org/1999/xlink"
   xmlns="http://www.w3.org/2000/svg"
   xmlns:svg="http://www.w3.org/2000/svg"><sodipodi:namedview
     id="namedview7"
     pagecolor="#ffffff"
     bordercolor="#666666"
     borderopacity="1.0"
     inkscape:showpageshadow="2"
     inkscape:pageopacity="0.0"
     inkscape:pagecheckerboard="0"
     inkscape:deskcolor="#d1d1d1"
     inkscape:document-units="mm"
     showgrid="false"
     inkscape:zoom="0.87444792"
     inkscape:cx="756.4773"
     inkscape:cy="377.38097"
     inkscape:current-layer="layer1" /><defs
     id="defs2"><rect
       x="18.752904"
       y="145.46231"
       width="61.838124"
       height="464.1366"
       id="rect620" /><rect
       x="177.03134"
       y="648.3019"
       width="684.87855"
       height="75.547666"
       id="rect562" /><rect
       x="18.752905"
       y="145.46231"
       width="61.838123"
       height="464.1366"
       id="rect620-3" /></defs><g
     inkscape:label="Capa 1"
     inkscape:groupmode="layer"
     id="layer1"
     transform="translate(65.576126,-82.168915)"><image
       width="330.90558"
       height="121.35555"
       preserveAspectRatio="none"
       style="image-rendering:optimizeQuality"
       xlink:href="data:image/png;base64,iVBORw0KGgoAAAANSUhEUgAAA6oAAAFYCAIAAADV25ZyAAAgR3pUWHRSYXcgcHJvZmlsZSB0eXBl IGV4aWYAAHjapZtpch25tp3/YxQeAvpmOAA2EOEZePj+FpLSq1KV/eLaUoikyHMykbtZzQbozv/6 n9f9D/606qPLpfU6avX8ySOPOPmi++/PfB+Dz+/j963p0893//Z9V/rPl5HPesn3Mt/r9zn8+v7P G359DpOvyl8u1PfPD9bffzDy9zn2Py70c6OkFUW+sJ8LjZ8Lpfj9IOTfj/D+1NHbXx9hne/zz/u/ MPDP6UNq79q/L/Ln/3Mjelb4ZorxpJA8H1P6WUDSv+jS5IvGx5SCXsjnycfvO/VnJQTk3+L0+89g RVdLzf/6or9l5fdXf2Sr/IrRn9nK8ecl6Y8g19+f//X7LpR/z8oL/V/unP+rTP72/ZrC/lb0R/T1 717r9z0zTzFzJdT156F+PeL7itctbqFbd8fSqm/8K1yivb+Dv52q3mTN/PaLvzuMEEnXDTlYmOGG 8z7vsFlijsfFxhcx7pjeN3tqccRNJkPK+htubGkkS51c7pf2nOLvtYR32+G3e3fr3NkCL42BiwXV xX/61/2nb7hXsQ1BsST14ctvjAo2y1Dm9JGXkZFwf4JaXoB//f3zj/KayGBRlNUig8Cu7xKrhP9C gvQSnXhh4fPXLqHZzwUIEbcuLCYkMkDWQiqhBt9ibCEQyE6CJkuPKcdFBkIp0VhkzPQMuelRt+Yt LbyXxhL5tuP7gBmZKKnSYZ0MTZKVc6F+Wu7U0Cyp5FJKLa30MsqsqeZaaq2tChRnSy27VlptrfU2 2uyp51567a33PvoccSRAs4w62uhjjDm55+TKk3dPXjDniiutvIpbdbXV11hzUz4777LrbrvvsadF SwZ+WLVm3YbNEw6ldPIpp552+hlnXkrtJnfzLbfedvsdd/7O2k9a//H3P8ha+MlafJnSC9vvrPHd 1n5dIghOinJGwmCRQMabUkBBR+XM95BzVOaUMz+EdSWyyKKcWVDGyGA+IZYbfuXOxS+jytz/V95c y3/LW/x/zZxT6v7DzP0zb/+WNRMN7ZexrwsVVJ/ovlsbDbGtZQsxTXimhz5qNruWi8v91sVSs0W/ 9DAkol0jGJc378aT9JP7TOsMn/ehYegfIVQbs63G5XOup7rWh/lsKQa/M2i2Vr+ZVc1ujVjZ3C2s zXNkqrFmgG21CM6l0u7ZI50Wbp19ucRD8j3uXkvZx7hxqATSbll2cyS159QWYl4jbb7Y417eVCwS ixr42RinbtfWavXsc87tu9046yGqPNTsLPjUYvw4EQgKCHDI/cR8475JgDwrURjTQqhuPYYttiOv mT4XSxdk54nIJzFrrKJZHIOL1GqHt7d6l8VSCXE84/q10gZGdg1jpXH5YHnUdOdI92Q/s6fc+C4P PCniPceIETBLSmIjXJl03mllDxDK6UMsoRHnzh1yp+gXK15WqBm/LWTK+pKiM2cY1sJIfd8948qn jslVKK2cXVFUWDctRYEDkl0pK9TDamGOM5q3szZck9b2sbS9Ns112+Ze+bYZG4DUruPH1mcOa4VO hYZLqOfstxMPI/Gp1BEKcW3E+laWc3Kl5u6BU8skGoeiy9uB39Tj8BSp0e/UGVmhGNKUamtjRbuD 5yUzLIaviXsa+xDQkne0WvlfsQzTBsu+L715RboWIGCpVvKi6BePwv8jOTxnW5llnA1LjJhpZJ8W 0qJTOqu7g1gM9D3JsV3nYvH57Ot5eRqTawXakxpvtez72qbWabZ3SzvUeVO0neNdjlJlPabgUDxT VWErWIyX3hutKKfcIg5aMAzKH8Gxyry1rBwmIQf8YqzFWU/VfJsD1DDJxdk6kGJGkBbrO+Rggyt0 Ctf4ipU1gRephtpHonf8HssdYhbuIrUHQDkrX0DiVBstQzP9gIc+PGDPd+nFad5s9NGs+/FpXLz4 JIckAF69PwjqSB+FlDYKh95PnvsWz5JDo+v16KSetl920D3cG3Le3V/wvx4HRp9DM036cjajqDJv 3guxe8HyFQdgOQHv0yPVDLKmsUhpSWGhwH0CEC4QjxpZdca6ZiZHF3LvVmjIflGHW7hIq9UptJ2A wLV42tq8lkzvleP2QH3nsd1p/BQ8WPADsUmDONDFY/jjB7gSHlYVjIC1qUwdmmD1CK6gVlLdcQLR Y2pFpZJDIF4PPQQdYG7qrJ1rgHb0bIUYulC0x1wGYEcnxjnbnbzH44v2dTT2XHoUULw2T6NYAqhT ZEGHZAGIB3kTeR4fTSALCvoFqxlgxc99pV+QfpEXghG4lJVgAR7IDNHOz+jhX40zgRmV/jqUPnC/ ToSlQY/VBpCRZCFa05JuovZWyxBbbd0EojsNqgW5dUcKd5+FfqRXBhqh8GYlkKo6pYfj294QJJYF UilgoZp0v9YWHxEhVkDJA0wAbLBLkwZQw1gkVQg6oconKLfaNAfRqE0bepwyzW2hmmuBldY45Iz2 o1zKCBB745Hn6Pn4fmly2rfn5veKCr0La9La6IgaPbiS6CavhMyeKe6akuEhQOABk5+SBwyC6eSb ZPouD+/3Qb0uhx2CN/B1kbfzqkZTobSOl6QrqI49gFzkzFrYUp4pSK9cyFIJQuBMMKog/cKqJS56 X8Xc8DI9SL8slgDueFgLvB5ibSPOW5SmTIK41PFAChWgKWRzyKhdGloDkjPMBFg6t1KxxcxE83oo gwQQ6tvhHNoQm7sJHBFFYvQSlC8H4x2iBzPunQGUi4jSPW2UojIBhfA5U59C3lXyvWIlKr1OTusw aNtCak4iPEXoJ0XwL0eUBRhKPbJgWxP8qR2Pde4YosQ1o+4mWzdlQu9sGekwh+sXaCF0CRzlKmX3 A2p4Po4DVmQ7wB7+UT8LwEbXE13uyyWsAgL1HvCpOaSoJcQeBc7bCTMsdBakBOZeOpePvKITcbTV WuKYeQ4sIOdNlSBMDPRNTo2NPpy5QJOtlGs3daP9YSIc3EGzAOi0CAtggRVpITWFVCTiFyhICJAJ QQKP4AnFgaaciYzXRfEc6pXEIBvkZmFa8Sj0GpuKDqqeINiQhqUpr89cqLWFlMO6LQBja1IB/NXT acwWgFFYax0p2gAr0tG+LThCBLjGLLYQdSDMre4Aj4sgzQ5S0F+aKtySDh2S12xwmMRNpZQi2LDR 1WFloRUik5dd0lrg6uAEr1UyMEXkt6IEYZ9SULYAG7ci8gSaqqHsVqH4ad4LL6h5Oq25qT8ww+mx AX0Bcq0oKhowVEKAol5I3UQh1ARdcJekdKL5AtnkoRDeZ0/fO3gLHh1+HkTVgCheABQkloi4xsrK 6iHxlZRMjeh6mgXtqOEAHK/GIFL4/5XgftAcIim0fTw7LNEsD9oTuHXHFPaODvygK4h8ymNJw1NR G6BF/mmZjefDri/0A//Jmi7QYblJwLFYxApYnXdHdUf1SyOyaAjugvMqmJLjiY1sbO0+OboRJE1c mEQgd7+g9kZb8VQENAqmYS95+Tyg9wttiJJrpGVn7WsKTR0eRmK14PAS6QYchJjSkglPQ7PSoPlm uRweQBUBmbVT1z1JxqDRHl7AhmbKkzjTZWSTns4N8KdajPYlu1PiFN9xN6DbNpSFnIW3wAoyszP4 1iZd5EymvhFE9DfcHkC8C4xt2A13toVmnv5ZRLT3uivEDliW3uMGY6CXZVsw4Pp7SOQpUJpFKB1p hWWdGFWwREVLkfVrRDRWqwmiobwwPrQaBUHx8Ix7OnJBfvGlkLhUEIRTkRmgMrpNoi+3uIRUhFec 158i22hvnlbSAhc3gQRiFBF7MUTYUnyWX/tupBUtN+VcypLLzE02Ag2HZeZ/AEKsgC6LpomnJqNS YEjTs4tuyps2XTJgtPq6gpUiWniwS0FEbNdGq0gabKTmkzyQKEFydCmtgDlrwS9NszquG3O9eWeS WfxizCWwt1SVcAXCn4hR1o0cBCdBmOkQC4FeREptlnAjjU+vUJlAwEK6H1gJhLyaKhR8NcWU5EGR 8BXRrjakMY85QgdsYlus0nUAKk3NYvObtR0QgiLIvAdQINBN9o1GRG0gGHH09GdNurfbmmRIlVNz l3hQNSl6pGKk7an9JVfT8JOUWeRn6UIcAl0lD0WMs62gnzn8DytFwoLP7VmfegKaDC2EBhEy8dDU LokQXByRRgYhYNq9yERhlXR9dzhA+B7rSAsQ9PRDNBQskIoBuzx0So1iR/cgEvDhXCYLzcUFE94B 7TyqdlyQiXxD+XYq5simURyEjszMjRFYJLYtD9OMcaGW0BH4HQrgStgao/B7dARvPXZqUSNJlBsy BhqjIVCD+HYc6Ya1R8ONC0QRvsoUGjOI3zoyg/KsWFGIlm7vE+mMThjpAF8JgN+CKtg3NlkVbl9B cpgV0YpphRNxQwk96p9PczQETkuTPFr32hIJs+4IQPFsyN8rqEM2Uxi9Rcx/5M10PXHCufLK1lWY jgoK6j5KKeFHJpRnYm+QnPfkntUqNTbShUrhXSDUsUGoufOmeQ7esJN+8CkeexOaHLj2QZADkghq PYgdAGBkQBzBEqVTMW5PQrbKQ3aYifeWEwQj2CF8+6XFkakIbriExluCIo0VplAADjExIiI7VXwq PjuBE3A+/nMM/J+76ACi9/AgIMhJQben2XruKYN/4jNpCa6KCkVkUGuyzuii2/U0PQDQLm9QoXAB LA+UE6xfVDDYEAKSBq7B8EP7Auc4eFXOgAh9J1GHEuP1tC7q1G2WBaeSih64Y7oo80lceQqca5hX NhxbI6OJzmLxRY4VlAY4BwoDDKGcItKvxTIIUTUBHTIBmRLSIYOwJqYUIO41af5qcqMQUsexEDEk B1Sm7iGlx/kC5c1Lz2D38I7Ep0D4HZTETGV8W666RPaotzejUGciIyEb/isAIFb3uldrrMQIerMR bSAtaA5N6mSt80PmbyIgLJU6hdsgZuCZjslJHiElB+1QbpVGgIqu8huj9DoCAzQRvAX8h8kxCZ8N PTC5kicLuI59eQ/VlhOUXbBwWJMCpQvjDjYdeEWOEJdHEAsxYsum9jYQjG9+F3CQgDQ1jUqLJMcJ hCLKzm4+CP3CpzL6N25JNEiSQYwiasTVG25V2vcghJGMwTcNH9rJBLsD1IlsUnjyGlAtVFEEISZT RhnhT4K0gCZsHVgq6oLWQViN70KImqFBkGTcg394Y5qD4sA18WQVz0GsQGewvx+wETWA/EwNZJiL yKPs8P1ckn7GZfuS1RYaS1kjXmijrcnYFPQWFAUCjoSqNVGCC5kCkRi38VRXUCZ5qYWOhQBnNXUI omncp4Yf8riLp+c14eLTQpVmMIw7YRdGkMlCQ4tDIZjF5VzT5CXiUYmKBnh2NArXQHShXIqX5fvm plINF/IG9LUp5EkQNcfD9Ew+nG8/9SE8f2BSJXfQkVwz4ogWAuXbg9uws1UIsUZNLaxXRCIKJqJ4 jwMopUYxwsARbQgbGj4la1TME23UBzCjcTEqu0u3CXrJL4iPaUT6IfKpWPd1j7pkgoI8IBAD8q9e sRMdIsCoJ5QFBQQLyX0CA+ctDjEtrwTI4TMdQYVAqlQ4K/RbCmyU3iYmDBiDbE3TKeBQrqbRXDwt ZUUUjdYWIHYq9ziomAJbGl6jjtJOt6LVihmv2ChH80d0BNQ91Ue201SXGIlB56fAdUff1UEoZVes UFFDlTk1VIVvKCU6CuGDosKjx/VUsmwd2hrqGbXIKY9XSCgnJ9VOwkxWRYRHioEl/NiUKYmIXsR1 5kuQRDucNKWwXfxlkvZNnQB0OSEsr4FsJC1BDPkYaSsJusb6fZfmDYoGtPAm7aZJMump2oKBgiet 4e4o2XBhA73Eh/jaFV2KDTkBhEiao6psQO8IhNFuCgPQjqkGBTStlXp0A/9CwlI7Q3KHvoJo6aT2 ticgIUIctNewsRHEyPDbk0cB15EJQILgHbXgruAVY6GNoHhxUwGAGygPz6NtISAG41c7GzEecQHx WOkhfUV2eHxY2dXZ65WVHUITsCKQn0Rf4mv2cxlveX6RpciTAuyocl4EDIOPeMCu2QwOcvlvmIol rSCrRu0ozz6P5iVVG2LhFOANENvcCRkhX8+Dam+6aM5BnfX7WmQDalnmaxBAsWfG3SKskO2g2UGT kExKVfsBmHKYmBWXp8Y0wRTMRVokjzE0fBf1gAoA+hHVyfh37C8oJvphWbQCvkTWns8+ocsBnwnN x4POHiKXNyknaXdUZBE2hrtXFfnQGBBgGyimHjXv0Z4QaI4HpegACHTKnbV25zWUMpFEh1gR1lEI wOMVoVtV1T8VIFUTISyKPyI7qWMkECYHTmmJ4nYacmCrf81rMbJWZPoKWnJpNr8OMHcAmjkx1XiB JcvbR2tSSiUjeQgFLvusq8wDaJca7Y/UhdpGmMgENEWn7KMtCmyUpplXBDRem6EIEvxIqTkUvOeB Qo+LkCjzgmyICFCkjRC68M4BlDOlRWajJt1R+qbg2ioyCM9JoTpRckoZ0aqix6VAmNJ30LNGKzlo T4YqbLLJU1NP8rHlFDSbhteMRQGeXOji1cmstgTsWfKJ5cDGaMRK8ATFKjSWKmzBp4dicG+klSlw o0Vp5U2MTAcVJtpBm0uoJE386KN8una3eJbhAXMkPTIHOeEDC0QvgHHwlfBFfiM72B19LHcB3QAb xO1r4TfbI3XfMPGuR1ukniZl9QFlSd58iYD7yWM7Cjny8nJ2G59qrpov3I0ue29lQVe80paYdSCf rHdADKG5dsaGwiqkxEHuTZPlUuuGnqhSbftRAGNIP/g3mNfQW1YfsJoyYtwALH3xW+eTYE7mzLRb fXhRKaQioqehV4N7uvZAfRteKl8SOyoF+Iezv9WaBokg2gwgpASUBvypw+90ZeSZWtZWarviOPHg WfKSu7SD/AdT6WsNyPCYj/BDuU47De0pvDP688sEfU6t6tuQe5OmocqEjVA/NAvPsntrykez9UkM px6HrHEbwHtFQtCXO0b0GNAFnJ0vmEMeSrVfJcPxr5iofNOk1WkXjL1DlbK+6bnQ1az7dLgRlQvI AtgEDQjJrWsvTs+vDt8xfHMAI3BwkdIpnY0gL6jlOmX9NHIBJ9fS9kfYEoC0ZZHar8Gq5kNZsybo vQY8CjLhXI3THQpWz7SlM2U0gKFhvh6UMJCXTXugVKDRsEQiaJYM3WTtROJ0q+x7I4LRLY39xNC7 or/gTmAQpyha1cmutnp6ZFp8xAw9nwavwmAgstdeDVGK8I2DdnoUeenMzQ3PbeyO4tDTj2+TE2+j 8wZamHYNKZu5PemFxjBp3AyZ5qxp+xctBFR10Ft23DS8WydhXN9EHiXBrYb2ezy+WBt+YLBpB50e wV1gN12WbUZniuXpd4rsV2WwhFMrOSNKRfP+dm4KqByeFCmkTYDGs05BM4ptlr0AEiRPa5G2Ueui lQMLueioAz0vem0FgEd7I4ukYkRUZFHbCCoyaUuHrQdCVtDRIxYUXyMqNNP/xHZr17+QIlxunBCd NkewS0gpj6gjvNDAckhZTaTr0gYO5Irux1rQTVc6+RodfZKOSGh/vRxTQCJlj/VpsSdFaOrsAzob PtUGv8Q6ndy4xAX3tI2TgBLD3DRx0czxUSONV7Y2XvaDE/ztEC26ImNUT9Ro4kiOwsA4xyv1LcCc uuPb5Hl2GQ8jb0OjTW0gBj12RpJXh3XvFJ35N7288W3XXo05vYW3+V8kxbbHCeJ3wURQxgM8gTQ3 zbeBml2qq2UOzTsXBQIc+y7Ih2V0IgMNg8w3WlXdDqehY1hShFt0PASmil5IPemZDyEpWCxNo8sJ lOENdHyOdtR5RgIIU/HIcoYgHRrzxeaGhwGHKkbnD9yRtuYH2qMqvEEbmYbQloRphzygJ2guFf/S pProwAKtmScIrgM4Hg4FNJyigHjWISZpUI2btrdMyyIU5u7aldNuJlghIjsJg1i4bOk0E6xBiCpg FxzF4Y/khCTj8iC+9GfR7jsJ5VYThsQeNWkrGslU7fnbFEs/EM1j447AqIGOBKMlotBFS8SrbTaa RuvDPWjUj4m5Gocjy5fGm3LL2lYCx8N8CCkdkyRjmh6ATl+Na2m98LeE7MKhU1ZAAtqKBfk4dM4I Gf6O85y3MenKm+qjGZf/OGHgpL+bCJn+cg85Fnw5j41SPQ1gMhxO6UlzHO9gDRwXawTUFR9VgyQ0 PYGcKPTplWCy06pprHdJA+2n1iyqir01DVgU5HiHICUL1K4mJTHAPOoXEcADwCawxJGWpkdAvqyp DvIFqW11b02G6w6uUC9XMoJFkbztf+SzSOvqqprqgUNHWmhRMzOgPa+8O+z7ETdGD8Ge5fGutiju J2SyvakQD3IPaGRcHXtF9ee9lmadscE7YePMl9pM+qVM9w8BU2LHnTRKDglFyy2MAVBCYQZEZW1v 9KYdbok3fI6OwQAwruO5c6aEOk9/SQgCNHZs0jZ02enq8cMinnSiArVj89hscEEeD90Bm7TjED0D bKkJ5YMtXdqu4KmqNqtwBnh1HGTQCRJMRwcIaGJknzjk6j9laugxpqOy6NGqGOdvT0EMoml7/zlY QUsaX2FQV6PVhk6qjaaJGTYQj1UPgsWc2OKpxHZKRBdpuINPSIChNgABhuFlys1218EYk2dbigIS gkuoq0CS4eLbzeItXs/hN2Vdq+b/kJl2SFESsNj9pKiO3hG2qFrUYQJNLAKRpljp/sdP6HyVEIKn ho38qwiLA9THtVfLaIAmDQ/Stalxb/cQlL1tRUDFgF8XKMdYCtfHRGvCTy8spNzBJn81csEpAMnD jx0RB1UkbSl3iSiSidD015M1LJc8nU7MaetIR6E0IirvDBcIzV9j/TFrZ39o880ulg5HVyLmInJb 2RlHCQGl/mruFLQ9jcg7egbCqUmDyDxqS1s+SUMW0EWStNLpihuxKCzrumk4K5WLzjxGjdfxApqN HYK7aW7/Nq8JUW9zwdRbTRjtHRjYkKNEJmDl2gNtKLRSFzQ0WkOFfkBk6ObN+zzsAxW3LshiDVfe 7mbEGKCpYlQtur8XYy80sZVxgPGFpdTgB4abJZSl85gYXrVhi1MCy/irM1DEPT+7jr7g5eeCwjt6 HRdsaPsu54tonzr0wb2v5q4vLmt8JB4mQFKBN/tULcycrmbi3Bo5poxh4XWqZCNdqbetXw5Qz3BD 05EwSkw2oIUxAKPUuKhT21AXvgcaddSYn+/wWdVJb4MDH6P2C6s/XTnSpyt54L+AhAu/UUL7C1Nk SaGxFLSb15wn6Pjj1SyDqgaU5SR1yMiw24Sa+qB2ULUkE5mpfcS3l0eb6ewnCEexv7NqsLAm1LJg Gb3rm3pLGseP2d8uuRUkmYvqlEU4+ow6k4+rA4HVfuvomNZtT8oXzb0/4wAJrKqtXboNXffy2Zqz XQR1+Q0NdYRhyOlnQAV3ojMe2jO5pAlOlXXoaommQ0RqSdCvVxPvOp2awfkMrkQVHrnkq1+BWQOz j8nDIkqalqtZbC5o89x0euYLZ0vv1BLaE4LcNHa9fX/Vrn6U7abyptYysQogQBldMLEomtO17+t1 +u5qL6VDrSU7j2XZ6ktAB1l79tBEvfSOA3mJRIahxYHKc6CboF+R+Q7b21n3vfMiP4o7UtRdD6eD ZoRhUjlW70d1HRUxIwVHSimb8fbGybO2WMTC6dxvr2S6ZxumUgmRQDc6kPmOZHk6SONQnOS7g9S4 JO3U3JIYtea1Wd001UFt4EW045L20E7WfNYtYMa1eXo0WUeuV52gAmIyxof0oj/rpGm0XZvpbpw/ LtOhtkaHyABtIg3YfkuFusr62OXz9zbe2UKeeug8t9oJkIdmfjbG3dQppoM+K5SkFwlq2khR6qBK fVMObbY2E3l1bQ28gXzVBlLeRY4DWbGjw110bYtTKfB+/y0zWNUnM9Sg6AwEwVg4cjw5ZCwlKLTo loBaaPg4VHj1RqOQ9w0dBR08gplJjmbHGq1jxCOtDX69UzmQYtOyQRwkFKYLWwjT6ugBlYdEXcZr 6LwwSNTS6R7wBtNMA1XY+hJWTdz6d0R1ykQDgQfKCPqdmgODIQR+zhpReYIqHenOU56c+vXvKCKV AR7TkLRJluzDPSYdgoMx96nD2V9up9mLbkh2+hyhdm1UqNt0zL6MFUku4kU0/M7vvl1zfHxS1mJ5 vlQKk1LSnZBhKF/9FkJCHBYkPnIWEgn5PNB4es5/46l3rEaPFxzlJ+zvS5wIuXqZ6KjtwQF0g7pI tqBHSk3DrYxwhqj/eUE35LdwnX5qOgH9awgYAvKXZIx3fvyN9iG6djX8SzOpQ6RMXr2IhQiO+2t0 wr/EC6k3YGS7b1osv07mkPV4vEuE7DPT7ZK1maCxv3zrfUcz4P/zIv5eDu/+7m/18d/f/ved2h// d//3W3/P/989vqbEbqDDtBsCuOSj0xstlNwybgothJQcQScBif/UjFIGNoBw/5Y1FkTdjAAehplz ls+mARDm7/cgF7hB0ZeJBEXMbMMPh45ni+A2aHCfWbLtcIlAwl5XEx1Du4nZmwzo1Rnc/WdsNpJX k442dBAlcu+qc+jNDWyWIEO/rKNtIJ1hoZfAJYMgNbRnDTgOpODFiMyjLYbtYZE20Lur/NS7+/uT Dpi2yDFqMqxNkP0Byjw1dG0/+KQjYWujB/I77IJbCxHqdjgQfLPJOWCCZUP+GUjatb7+Qz/hB3Q8 Fd6r39hC7jvt5LCaXafB4BGMKJqpDbTA0DELdANoi0oNO2l2GM5G2ZZWxIQ67Ht7le4dOuLjVuz6 BYFGg3Zkq/bxwFuUI7J8FzDXdvr8G/psodxql5gz1iWfD9cB4vAzlR2jwpA0FfaRNj8RwTMAVshf +w3kCaNazcIx3zSACs8Ha0yU3u95IL6GWkRDNowyDAnj6Qgg9ir/E/B0fpD1VISTznugtHArremW AZ19suQPXnFcjfgA2qQB1tZgSoO7rN9fqXwlptTxKvg06lQ2S6sSMTxnJb0uSTCB/volDPQEa5F8 0bz2j1IsqSz9GknX7zd4cA6BUT9FSASvi/rV26TptvfufwNGjyEbxDqS6QAAAYRpQ0NQSUNDIHBy b2ZpbGUAAHicfZE9SMNAHMVfU6UiFQcrFhHMUJ0siIo4ahWKUKHUCq06mFz6BU0akhQXR8G14ODH YtXBxVlXB1dBEPwAcXRyUnSREv+XFFrEeHDcj3f3HnfvAKFeZqrZMQ6ommWk4jExk10VA68IYBj9 GEBYYqY+l0wm4Dm+7uHj612UZ3mf+3P0KDmTAT6ReJbphkW8QTy9aemc94lDrCgpxOfEYwZdkPiR 67LLb5wLDgs8M2SkU/PEIWKx0MZyG7OioRJPEUcUVaN8IeOywnmLs1qusuY9+QuDOW1lmes0hxDH IpaQhAgZVZRQhoUorRopJlK0H/PwDzr+JLlkcpXAyLGAClRIjh/8D353a+YnJ9ykYAzofLHtjxEg sAs0arb9fWzbjRPA/wxcaS1/pQ7MfJJea2mRI6B3G7i4bmnyHnC5A4SfdMmQHMlPU8jngfcz+qYs 0HcLdK+5vTX3cfoApKmrxA1wcAiMFih73ePdXe29/Xum2d8PeGNyqeLYz3EAAA39aVRYdFhNTDpj b20uYWRvYmUueG1wAAAAAAA8P3hwYWNrZXQgYmVnaW49Iu+7vyIgaWQ9Ilc1TTBNcENlaGlIenJl U3pOVGN6a2M5ZCI/Pgo8eDp4bXBtZXRhIHhtbG5zOng9ImFkb2JlOm5zOm1ldGEvIiB4OnhtcHRr PSJYTVAgQ29yZSA0LjQuMC1FeGl2MiI+CiA8cmRmOlJERiB4bWxuczpyZGY9Imh0dHA6Ly93d3cu dzMub3JnLzE5OTkvMDIvMjItcmRmLXN5bnRheC1ucyMiPgogIDxyZGY6RGVzY3JpcHRpb24gcmRm OmFib3V0PSIiCiAgICB4bWxuczp4bXBNTT0iaHR0cDovL25zLmFkb2JlLmNvbS94YXAvMS4wL21t LyIKICAgIHhtbG5zOnN0RXZ0PSJodHRwOi8vbnMuYWRvYmUuY29tL3hhcC8xLjAvc1R5cGUvUmVz b3VyY2VFdmVudCMiCiAgICB4bWxuczpkYz0iaHR0cDovL3B1cmwub3JnL2RjL2VsZW1lbnRzLzEu MS8iCiAgICB4bWxuczpHSU1QPSJodHRwOi8vd3d3LmdpbXAub3JnL3htcC8iCiAgICB4bWxuczp0 aWZmPSJodHRwOi8vbnMuYWRvYmUuY29tL3RpZmYvMS4wLyIKICAgIHhtbG5zOnhtcD0iaHR0cDov L25zLmFkb2JlLmNvbS94YXAvMS4wLyIKICAgeG1wTU06RG9jdW1lbnRJRD0iZ2ltcDpkb2NpZDpn aW1wOmFmMjUwYTFjLTNiNjYtNDFlNC04YzVmLWYwOTY3NDhmZjUzYyIKICAgeG1wTU06SW5zdGFu Y2VJRD0ieG1wLmlpZDoxODIxNTQwYS1iNWFhLTQ0ZWYtOGNhNS0yODM2NjRhMmI1MWUiCiAgIHht cE1NOk9yaWdpbmFsRG9jdW1lbnRJRD0ieG1wLmRpZDo4NGRlZTQ3Ny03YzYzLTQ4NTktYTNiNS0w OTM2NjZjMWRmZTMiCiAgIGRjOkZvcm1hdD0iaW1hZ2UvcG5nIgogICBHSU1QOkFQST0iMi4wIgog ICBHSU1QOlBsYXRmb3JtPSJMaW51eCIKICAgR0lNUDpUaW1lU3RhbXA9IjE2NTkzMDI4NTY3NzEx NTMiCiAgIEdJTVA6VmVyc2lvbj0iMi4xMC4zMCIKICAgdGlmZjpPcmllbnRhdGlvbj0iMSIKICAg eG1wOkNyZWF0b3JUb29sPSJHSU1QIDIuMTAiPgogICA8eG1wTU06SGlzdG9yeT4KICAgIDxyZGY6 U2VxPgogICAgIDxyZGY6bGkKICAgICAgc3RFdnQ6YWN0aW9uPSJzYXZlZCIKICAgICAgc3RFdnQ6 Y2hhbmdlZD0iLyIKICAgICAgc3RFdnQ6aW5zdGFuY2VJRD0ieG1wLmlpZDo5ZTkxMWEwZS02YWQ2 LTQ4NDItODU1My0zZTJiNTVkODg2OWEiCiAgICAgIHN0RXZ0OnNvZnR3YXJlQWdlbnQ9IkdpbXAg Mi4xMCAoTGludXgpIgogICAgICBzdEV2dDp3aGVuPSIyMDIyLTA3LTMxVDE4OjM3OjQ2KzAyOjAw Ii8+CiAgICAgPHJkZjpsaQogICAgICBzdEV2dDphY3Rpb249InNhdmVkIgogICAgICBzdEV2dDpj aGFuZ2VkPSIvIgogICAgICBzdEV2dDppbnN0YW5jZUlEPSJ4bXAuaWlkOjQ1ZTU1Yzc5LWUxODQt NDQ2My1iNTZjLTdkNmZlNzFiNzE2ZCIKICAgICAgc3RFdnQ6c29mdHdhcmVBZ2VudD0iR2ltcCAy LjEwIChMaW51eCkiCiAgICAgIHN0RXZ0OndoZW49IjIwMjItMDctMzFUMjM6Mjc6MzYrMDI6MDAi Lz4KICAgIDwvcmRmOlNlcT4KICAgPC94bXBNTTpIaXN0b3J5PgogIDwvcmRmOkRlc2NyaXB0aW9u PgogPC9yZGY6UkRGPgo8L3g6eG1wbWV0YT4KICAgICAgICAgICAgICAgICAgICAgICAgICAgICAg ICAgICAgICAgICAgICAgICAgICAgICAgICAgICAgICAgICAgICAgICAgICAgICAgICAgICAgICAg ICAgICAgICAgICAgIAogICAgICAgICAgICAgICAgICAgICAgICAgICAgICAgICAgICAgICAgICAg ICAgICAgICAgICAgICAgICAgICAgICAgICAgICAgICAgICAgICAgICAgICAgICAgICAgICAgICAg CiAgICAgICAgICAgICAgICAgICAgICAgICAgICAgICAgICAgICAgICAgICAgICAgICAgICAgICAg ICAgICAgICAgICAgICAgICAgICAgICAgICAgICAgICAgICAgICAgICAgICAKICAgICAgICAgICAg ICAgICAgICAgICAgICAgICAgICAgICAgICAgICAgICAgICAgICAgICAgICAgICAgICAgICAgICAg ICAgICAgICAgICAgICAgICAgICAgICAgICAgICAgIAogICAgICAgICAgICAgICAgICAgICAgICAg ICAgICAgICAgICAgICAgICAgICAgICAgICAgICAgICAgICAgICAgICAgICAgICAgICAgICAgICAg ICAgICAgICAgICAgICAgICAgCiAgICAgICAgICAgICAgICAgICAgICAgICAgICAgICAgICAgICAg ICAgICAgICAgICAgICAgICAgICAgICAgICAgICAgICAgICAgICAgICAgICAgICAgICAgICAgICAg ICAgICAKICAgICAgICAgICAgICAgICAgICAgICAgICAgICAgICAgICAgICAgICAgICAgICAgICAg ICAgICAgICAgICAgICAgICAgICAgICAgICAgICAgICAgICAgICAgICAgICAgICAgIAogICAgICAg ICAgICAgICAgICAgICAgICAgICAgICAgICAgICAgICAgICAgICAgICAgICAgICAgICAgICAgICAg ICAgICAgICAgICAgICAgICAgICAgICAgICAgICAgICAgICAgCiAgICAgICAgICAgICAgICAgICAg ICAgICAgICAgICAgICAgICAgICAgICAgICAgICAgICAgICAgICAgICAgICAgICAgICAgICAgICAg ICAgICAgICAgICAgICAgICAgICAgICAKICAgICAgICAgICAgICAgICAgICAgICAgICAgICAgICAg ICAgICAgICAgICAgICAgICAgICAgICAgICAgICAgICAgICAgICAgICAgICAgICAgICAgICAgICAg ICAgICAgICAgIAogICAgICAgICAgICAgICAgICAgICAgICAgICAgICAgICAgICAgICAgICAgICAg ICAgICAgICAgICAgICAgICAgICAgICAgICAgICAgICAgICAgICAgICAgICAgICAgICAgICAgCiAg ICAgICAgICAgICAgICAgICAgICAgICAgICAgICAgICAgICAgICAgICAgICAgICAgICAgICAgICAg ICAgICAgICAgICAgICAgICAgICAgICAgICAgICAgICAgICAgICAgICAKICAgICAgICAgICAgICAg ICAgICAgICAgICAgICAgICAgICAgICAgICAgICAgICAgICAgICAgICAgICAgICAgICAgICAgICAg ICAgICAgICAgICAgICAgICAgICAgICAgICAgIAogICAgICAgICAgICAgICAgICAgICAgICAgICAg ICAgICAgICAgICAgICAgICAgICAgICAgICAgICAgICAgICAgICAgICAgICAgICAgICAgICAgICAg ICAgICAgICAgICAgICAgCiAgICAgICAgICAgICAgICAgICAgICAgICAgICAgICAgICAgICAgICAg ICAgICAgICAgICAgICAgICAgICAgICAgICAgICAgICAgICAgICAgICAgICAgICAgICAgICAgICAg ICAKICAgICAgICAgICAgICAgICAgICAgICAgICAgICAgICAgICAgICAgICAgICAgICAgICAgICAg ICAgICAgICAgICAgICAgICAgICAgICAgICAgICAgICAgICAgICAgICAgICAgIAogICAgICAgICAg ICAgICAgICAgICAgICAgICAgICAgICAgICAgICAgICAgICAgICAgICAgICAgICAgICAgICAgICAg ICAgICAgICAgICAgICAgICAgICAgICAgICAgICAgICAgCiAgICAgICAgICAgICAgICAgICAgICAg ICAgICAgICAgICAgICAgICAgICAgICAgICAgICAgICAgICAgICAgICAgICAgICAgICAgICAgICAg ICAgICAgICAgICAgICAgICAgICAKICAgICAgICAgICAgICAgICAgICAgICAgICAgICAgICAgICAg ICAgICAgICAgICAgICAgICAgICAgICAgICAgICAgICAgICAgICAgICAgICAgICAgICAgICAgICAg ICAgICAgIAogICAgICAgICAgICAgICAgICAgICAgICAgICAgICAgICAgICAgICAgICAgICAgICAg ICAgICAgICAgICAgICAgICAgICAgICAgICAgICAgICAgICAgICAgICAgICAgICAgICAgCiAgICAg ICAgICAgICAgICAgICAgICAgICAgIAo8P3hwYWNrZXQgZW5kPSJ3Ij8+o1WQ+gAAAAZiS0dEAP8A /wD/oL2nkwAAAAlwSFlzAAALEwAACxMBAJqcGAAAAAd0SU1FB+YHHxUbJDlLhzYAACAASURBVHja 7J15XEz7//jfM9M21TRSKu1F0UaKbC0oXZKEKISUJevgqvhcZd+3LtkuuVxF6CqJ4qKFSklIIUx7 UW5N+9TUzPz+OJ/P/OZrTeu76fX8w+PM6czxfK/zOue8z/tN4vP5CCGEEIvFqqmp4XK5CAAAAAAA AABEBQqFIicnJy8vT3wk8fl8LpdbUlKCEJKWlqZQKJBHAAAAAAAAgMjA5XIbGhr4fL6ampqYmBiJ z+cXFRVJSkqKi4tD7gAAAAAAAAAiSVNTU3Nzs4aGBpnFYvH5fIh9AQAAAAAAABFGUlKSz+dXVVWR a2trpaWlIUcAAAAAAAAA0YZKpdbW1pKbm5thvC8AAAAAAAAg8lAolJaWFjKJRIK8AAAAAAAAAEQe EonE5/PJkBEAAAAAAABA7wHCXwAAAAAAAADCXwAAAAAAAAAQSZhMZuWPuHjxoqWlJT7OlpaWUVFR lT9PXl7e3LlzNTU1MUmIpqbm8uXL8/LywLBXGbYe/JseGPYGQ+hgwRA6WOgcRKn7YjKZJCaTKVgC 7qsEBwcfPXrU19dXV1dXWVm529NWVlaWm5u7f/9+T09PBoPR+i8WFhYuWbLExMRkzJgxpqamOJTT 8+fPk5OTk5KSrl69qqGhAYa9wbD1X8S/6YFhbzCEDhYMoYOFzkHEui8Wi/WD8DcmJobBYERHR4uJ iSGcqK6u9vLyOnDggK2tbWuO53K5tra2U6dOnT59OsKMGzduxMTE3L59287ODgxF2/DOnTutnGsF /6bH4XDAUOQNoYMFQ+hgoXMQve7rx+Gvvb39zJkzJ06cKLyzvr6+qamJy+V2WWIoFIqUlNRny3PE x8ffvHkzIiKiNWe4f/++r6/v5cuXhcuJy+XW1dVxOJyuLBhJSUkZGRnhuZb5fL6rq+uiRYvOnTsH hqJtGBQUNGrUqNacAf+mV19fD4YibwgdLBhCBwudg+h1XywW6wcx+6tXr3bt2iW8h81mU6lUMzMz KpXaZcljs9lZWVnEfy3YaW5u/pnbd8jKyho1apRwo+Xz+TU1NYMGDVJVVe3KdltaWvrmzRt5eXnB RSqJRLK2tk5KSgJDkTfMzMxsZe+Mf9NramoCQ5E3hA4WDKGDhc5BJLuvH8z80NDQoKCg8NkeQ0PD rkwbQohKpRobG7PZbOGdNBqNxWK18gyNjY39+vUT3tPU1KSkpNTFjRYhpKqqqqys3NTUJLxTTk6u trYWDEXesPU1Fv+mB4a9wRA6WDCEDhY6B5Hsvn564jMejyclJYW6HCqV2rG307lcroSEBOoOJCQk WpMWMOwNhqLU9MCwNxhCBwuG0MFC5yAC3RfM+wsAAAAAAAD0IiD8BQAAAAAAACD8BQAAAAAAAAAI fwEAAAAAAAAAwl8AAAAAAAAAgPAXAAAAAAAAACD8BQAAAAAAAAAIfwEAAAAAAIDW8urVK2dnZ01N TSMjIw8Pj4qKiradx83NLTo6GiGkpqZWXV0N4S8AAAAAAACAHTwez8XFZcKECS9evMjIyDAwMHB2 dubxeN/5ymdL5fVmIPwFAAAAAADoYXz48KGwsHDRokXy8vKSkpI+Pj5aWlqVlZUIoWvXrg0ZMkRX V3fNmjWNjY2ZmZmTJ0/evn27nZ0dQigiIsLU1FRLS2vu3Ln//vsvhL89m4Sn79cEfzJaKtFXS36Y Lyng5tvU7GxoHgAAAAAAiB5qamqGhoYuLi6RkZHV1dVkMjkkJERRUfHNmzd+fn7Xrl17/PhxVlbW 6dOnEUJPnz6l0WgPHjzIzc1dvXr12bNn3717p6Cg4OvrC+Fvh6GlpSUnJ0cXorCwsPPSUFHJ2nml ePrEESE++h/CZRCdX9AgFiQlNln3QWTheVYVq/3/xenTp2VlZYVTdOLECcFfAwICur0gv2V48OBB Y2NjDQ2NhQsXVlVV4WbY3Ny8Zs0aHR0dHR0dHx+f7z+16a48JHj16lVQUFBPadiftUFNTU2E0K5d u2T/h7KyMoaGHA5n3bp1AwcONDExefDgAW6GGRkZsv+Xffv24ZaHb968sbe3V1FRsba2Tk9P7xHV 9atNj8fj7dixQ19f39DQ8MiRI90i5u7uTqPRhMUyMzOJP5WWlgr3D2VlZS4uLhoaGpMnTy4oKMDQ kCAuLi4uLg7PPMzLy5s8ebKampqpqemNGzdwqJkCeTk5OR0dnXXr1rW0tHx2zNWrV8PCwojtW7du WVpaqqmpWVhYBAQEdMEv2oMHD+zs7I4ePaqjo/PLL78kJSUhhK5fv+7q6jpo0CAlJaXjx49bWFgg hCQkJBgMhri4+M2bN52cnIYPHy4hIeHv7x8ZGcnn87sr90Qt/EUIPXr0qFoIol/uJE7+U394ucl/ P9AQ6s9FKo1IkYWkP3gOOZzceLFD/hdHR0fhFK1YsQIh1NDQEBQUFBoaikNZfmkYHh7+559/RkdH p6SkVFRUbNu2DTfD8+fP5+TkPHv2LC4uLjY29sqVK7gZEvubmpo8PT3v3bvXgy5thdsgcf2Zl5d3 +vTpsrKysrKy3NxcDA03btxIIpGys7MPHz68Zs2a5uZmrAxNTU3L/kd+fv7gwYNnz56NWx4uW7Zs zJgx79+/d3Z29vDw6CnV9audw61bt5KTk+/du3f+/Pn79+93i9jevXuFxYYMGYIQKi8v9/f3T0tL Exzm5+enr6/PZDLt7OxWrVqFoSFCKCcnZ9OmTV3f9ltp6OLiMm7cOCaTGRAQ4OnpWVRUhEPN3Llz J6EdFhZ248aN8+fPC/7U0tLC4/Hy8vKILM3JyfH29g4ICMjLy4uJiXn37t2mTZs6W09WVtbHx+fB gwd5eXkODg4ODg4FBQUlJSUaGhrEAQYGBqNHj0YIqaiokMlkIufV1dWJvyopKZFIJGK8RBfnnsiG v1/C5XLXrFmjpaWlpaW1c+dOYudnw1PacNqEp+//f+yLEKLzEY2HZJuRTA0Sr0Sk6vkGW18VpXZG ijgczoQJE86cOYPtL0piYqKHh4e2tra6uvqKFSseP36Mm2FZWdnixYv79Omjra1tZ2eXl5eHZ05u 2bJFVlYW9XDy8vIGDRok8z9w02toaLh06ZK/v7+kpOTEiRNjY2NxMySTyYLcO336tLu7u46ODm6S 2dnZ8+bNk5WVXbhwYX5+fn19fQ+trrdu3VqwYIGioqKqquq8efOuXr2KiVhqaqqjo2NiYqJgD5vN joqKWrdunYSExOrVq9PS0kpLS7EyRAidPHly/vz5nfoktj2GHz9+LCgo2LBhg5SU1IwZMwwMDJ4/ f45PbSSRSCNHjrS3tyduXaupqd24cUNfXz88PPzUqVNnzpwJCgp69uyZjo6Ovb29hISEgoJCQEAA m80mgp8tW7bo6ekZGRmdPHmyA61CQ0NnzJjx39iHTmcwGCNHjkxKSlJWVv748SOxPyMjIyIigui+ BCFvSUkJsV1RUcHj8eTl5bss9xobG1etWqWrq0u0ayKLHB0d4+PjiYOdnZ2J7bNnzw4aNEhVVdXV 1bWhoQEhVFRUNG3aNC0trSlTprT/0VbXhb9RUVFPnz59/vx5YmLi8ePH371799XhKT/L38/p/+ez HI+s2Cwpz+4j1SBLqUaoFiGURe+UflNCQuLx48fXrl3D9vdj69atgvuXz58/HzZsGG6GmzdvnjVr VmFh4e3btxMSEiZPnoxhNsbFxWVnZy9dulQEwt/NmzerqamNHDmy24cWfElpaSmNRjtx4oSpqamt rW1eXp64uDieOVlUVHTt2rWVK1di6GZjY/PHH398/Pjx9OnTI0aMwPA6p/X3FwTPZMXFxTGJ2xBC I0eOTEtL27hxo2DPhw8f+vTp069fP+J3QUdHp3vvXH5piBBavnx5Wlqavb09nnmoqKj48uVLCoWC EKqqqsrLyzM1NcWqQmZkZNy7d2/w4MGCy7MXL17Mnj3b29t7yZIlq1atsrS0zM7O9vb2fvjwIYfD MTAwOHr0KELo/PnzKSkp6enp165d27ZtW0ZGRkcp2drapqWlnTlzpqampqWl5c6dOzk5OWPHjp06 derly5dzc3MrKio2btz4WW2cMmVKVFTUixcvWlpaduzYMXXqVEFk3AW59/fff2dkZKSlpWVnZxcU FBCzrX1JeXn5pk2boqKicnJyKioqiCfDHh4e1tbWeXl5y5cvnzdvXjsnaOusNFtaWgoG+qiqqhKV u6qqKjs7W0ND48OHD3p6el8dnvKz3E9V+++WLKLo8WhqLZpKjSb0muGUqtHc6hEtSJ2P4vvdan+K oqOjBSnCMI78qmHfvn1lZGRaWlr2798fGhq6bt063AwFl0a//vprv3791NTUcDOsqKjw9fU9efJk F3QQndcGr1y50tzcrKen5+PjU1RU5OfnN3fu3LKyMqwMWSzWhw8f6uvrExMTGQzG7Nmzu/2V5M8M BfsPHDiwZs0aHKLzLw23bt36xx9/GBkZ7d69e/v27T2lun7Z9Ozt7UNCQkpKSphM5vnz51ksVreI bdy4USC2evXqrx5TUVEh/HSIRqO1efrVTjLsXlpjKCYm1r9/f4TQq1evJk2atHjxYsHj++4lICBA QUFBXl7ewcFh4sSJS5YsIfavXLmSRqMJH6murv7s2TNZWVkGg6Gurr5o0SJiFHh4ePjatWvpdLqh oeGVK1c68FariopKXFzc7du3hw4dqqWldfDgwfPnz2tpaQ0bNszf33/q1KlmZma6urre3t7C3xo4 cGBgYODChQsHDhxYVlZ26NChrsw9JyenmJgYRUXF2tpaKpVaU1Pz1S/KyMiIi4s/f/5cXFz83r17 ixYtysvLe/Xq1YoVK8hksqOjI5VKTU5Obo+bWCel+dGjR8T4HuFuesGCBd7e3lVVVW5ubrt37y4p KTEyMiL+amBg0Lb/6EO4DEJIXJXfV6NFRYOtqlqrov6vqvR7ufpCXhnnkxz6KIXeSZVrtTtFjo6O guHtePJVw5ycHE9PTyUlpbt373Z7cPmtPFy1atWqVasYDMb27du79/WyLw0ZDIavr69gpFQP4ss2 eOfOHWJjxowZW7Zsefz48bRp0/AxfPv2LYVC+fXXX+Xk5JycnLZs2ZKSkjJ16lSs8hAhVFlZGRkZ uXfvXgxLua6uzsHBITQ0dPLkyUlJSbNnz87IyCCiCsz5suktX768vLzc3t5eUVHR2dn5s2GsXcbe vXt/eJtfXl5eeJBJbW0tnU7HyrB7aaUhj8c7ePDgqVOnAgIC8Bm2vn37dgaD8eV+4r7eZ2hqah48 eBAhlJ+fv3fvXgcHh+zsbOGRuDY2Nh2rp6enR4xt+IwFCxYsWLBA8HHIkCHCLWjmzJkzZ84UPl7Q +gTjIjop91gs1urVq58/f66rq/vV27fEMx8ZGZmTJ08ePnx4xYoVdnZ2Bw8eLC4ubm5uFmSghIRE O98s7LobWsXFxQsXLszKyrp//35ycnJ0dPRXh6f8LAbOdTR1nuGARiutqskKJdMlX89seOJQ/MT2 ZZZNZvm4t2j0RzT1kyHqleTn5zs6Oi5btiwiIqLbY9+vsmjRIsGTIAsLi/fv3+NmmJGRsWrVKmVl 5aVLlz548OCrXV6PoLCw8O+//xZ8lJCQoFKpWBn2799f+H4qiUTCc/BDeHi4vb29tLQ0hm7Pnj2T k5NzdHSkUCjW1tZ6enqpqak9tMY2NDRs3LgxOzs7ISFBXl4ew2HWwpFQTU0NcX+6ubk5Pz9fW1sb AT/Jb7/9du/evZSUlB7xyuaXzwO9vb0FU5Roa2v//vvvxcXFRUVFwqFOZGTk06dPe3Mp79ixQ0lJ KTMzMyYmxtzcXPjih9h49+4dQqiqqsrIyCghISEnJ4dGox0+fFhJSUlNTS3tf/zxxx/W1tY9I/z9 +++/lyxZUlpaqqSkJCYmxmazvz88pZU4mH40UeBYS1ZNaihw/JBh+/rhqJT7JvGJg+68HHSv2jQR jXiJjArm9856dvTo0ZkzZ7q6ujY1NTU1NXE4HNwMFRQUAgMDibm7//rrL0tLS9wMX716Rbzp/8cf f0yYMKHD32g5d+5c3759z50719kJkZSUXLp06c2bN3k8XkxMDIvFGjVqFFZZTaPR7O3tg4KCeDxe bGzsp0+fRo4ciWGzunXrlq2tLZ5N3sDAoKKiIjw8nMPh/PPPP69evcJtAGXrSUhIcHJyqqqqKiws PHv2rKenJ7aq0tLSkydPJt5qOnfu3LBhw/C83YAzHz9+DA4OPn/+fJ8+fYgfrO6dB/OnIJZSmz59 +vHjxx88eNDU1FRfX3/06FE9PT0NDQ0nJ6cjR47U1dW9fft21apVJBKpNxd0ZWWlioqKpKTk27dv b926RYQlcnJyMTExPB7vzp07xCh/JpM5adKkly9f0mg0Go3GZrP19PQkJSWDg4O5XG5sbOyUKVPa mZOdNfjBxsZG+NrozJkzXl5eycnJ5ubmUlJS06ZNc3V1FRMTI4an1NXVTZ48+bPhKa3EblRt89Va i9IPxpwsjYY0Wk2mGOkdqbYc0RCfjmQMEPUTanaxRCi6F9az58+fp6WlCYYTDBkypJ1jZTqcnTt3 MhgMKysrHo83bdq0DRs29LYyIpK8YcOGzv51V1ZWjoiI+M9//rNixQo9Pb2rV6/KycnhlhuBgYFL ly7V0dFRV1cPCwvr7PeR20Bzc3NycnJ3TUP7QxQVFa9evfrbb7+tXr1aU1MzJCSk596GnDp16t27 d01MTPr3779jx47hw4fjbHvkyJElS5YMGjRIV1f37NmzEM7+LFlZWQ0NDfr6+oI9YWFhjo6O+JuP GTNm0aJFffv2ZTAYQUFBO3fufPPmjaSk5OjRo4npSry9vYuKikxNTUkk0saNG83MzDrcwdra2tfX tw3Z5efnp6mp2ZWDZ3x8fLy8vEJCQszMzHx8fA4fPjxlypT169f7+/traWn169ePGN5gbm7u7u7u 6OjY0tIyfPhw4vWbkJAQBoOxZcsWVVXVS5cutXM6pk4Jf7816feXM9d8NjylDYy00P53ccHA9QUa KIOOkijov/Npo1pEqkWS1ejJsgijwUbRN9oV/i5btmzZsmVf/RMx12O3t8CvGmL1dv9XDaWkpNo2 40eXGQpwcXFxcXHp8P/04MGDGzZsIIaLdXYbtLa2fvToESa5/VVDJSWlyMhInA3FxcU/ffqEs6G1 tfXDhw97VujzraZ37NixY8eOdaNYSEjIt/7k5eXl5eUl+KigoHD9+nWcDQm6fuLVVhra2dnV1dXh VjO/JS88QNbKykowbG/SpEmTJk36stPYv3///v37e9slzVdzz9TUVHj4B/EqpKamZkxMzGdHbt26 devWrZ+FW18e1mZEYdHj0U70yuC+MujN/499/8ejs1Gqw4bChTWALZ6enpWVlTg/2AUAAAB6HBER EaamplpaWnPnziVm0amsrJw3b56Ghsbo0aM/u0i+fPnysGHDun2yna5EFMLfvn37jJo+JD1hx+M/ r5SvZiCEylczHv95JSnhsdFES3n5PtAMAAAAAADoJeTm5q5evfrs2bPv3r1TUFDw9fVFCK1fv15D Q4PJZK5Zs2bOnDmCJYgfPHiwffv2yMhIRUXF3pNFYiKTEkMTfWSij6ZNZG3bIo7QIKj+AAAAAAD0 Pm7evOnk5ESMmPf39x88ePDp06cjIyMLCwslJCTmzJlDJpOJ185evHixY8eOQ4cOaWlp9aosIkMt AQAAAAAAEBnKy8sF09UrKSmRSKScnBxZWVnBG8+urq7E7I1RUVGurq6nTp0SLLII4S8AAAAAAADQ w1BSUhK8n1dRUcHj8QYOHFhbW9vQ0EDs/P3334mRvsS717W1tZcvX4bwFwAAAAAAAOiRTJkyJSoq 6sWLFy0tLTt27Jg6daqUlNQvv/yyf/9+Lpd7/fr1Q4cOEWsTUqlUcXHxnTt3btu2jc1mQ/gLAAAA AAAA9ADc3d0V/oe3t/fAgQMDAwMXLlw4cODAsrKyQ4cOIYSOHj2alZWlra29a9euixcvCi+r6ejo qKure/To0d6TY2JQaQAAAAAAAHooiYmJX+6cOXPmzJkzhfeoqKiEh4cL79m3b59guwOn1IXwFwAA AAAAAOhgKBRKZ/8XXC5XhDMQBj8AAAAAAAAAvQgIfwEAAAAAAAAIfwEAAAAAAABAFIGxvwAAAAAA AD0J0R6Y2wXA3V8AAAAAAAAAwt/vfIFMbm5u7npRNptNJndksE6hULrr4onD4bTmnU0w7A2GotT0 wLA3GEIHC4bQwULnIALd109/QUpK6uXLl128NAibzc7OzpaSkurAc0pISHz48KG0tLSLy6m0tPTj x48SEhJgCIYi1vTAsDcYQgcLhtDBQucgAt3XT4/9lZGRaWhoSElJ6cprPgqFIiUlJSMj07GXenJy cu/fv8/Ozu7KopKUlOzTp09rrlTAsDcYilLTA8PeYAgdLBhCBwudgwh0X2159U1aWlpaWhr1fCgU ipycHBiCYU8B/6YHhr3BEDoHMIQOFgx7evcFr74BAAAAAAAAvQgIfwEAAAAAAAAIfwEAAAAAAACg F4a/MjIyFRUVeKrX1tbSaLRWHiwjI/Pp0ydsi6GmpoZGo4FhbzBsfY3FvOmBYW8whA4WDKGDhc5B JLuvH4S/xsbGz549wzN56enpw4YNa+XBxsbGjx8/5vF4GCaEz+cnJiZaWlqCocgb/lSNxbzpgWFv MIQOFgyhg4XOQSS7rx+Ev6tXrz5w4ACGa+tVVVUdO3Zs9erVrTzeyspKTk4uKioKw3K6ceOGoqLi 0qVLwVDkDUeNGtXK4/FvemDYGwyhgwVD6GChcxDJ7ovCYDCoVOq3/qynpyctLe3j46Orq6ulpYXD ZZ+YmFhqaqqPj4+np+ecOXNa+S0ymTx+/PjAwMDi4uIBAwZ8J8ldCYvFunDhQmxsbEhISJ8+fcBQ 5A1bP0MQ/k0PDHuDIXSwYAgdLHQOotd9NTY2IiaTWfkjoqKixo4di09oP3bs2KioqMqfJy8vz9vb W0NDA5OEaGhoeHt75+XlgWGvMmw9+Dc9MOwNhtDBgiF0sNA5iFL3xWQyWxX+Xrx40dLSEp/kWVpa fpY8MARDMARDMARDMATDnguUcmcYfiv8JTGZTHl5+e+cKzg4+OjRo76+vrq6usrKyt2etrKystzc 3P3793t6ejIYDDAEQzAEQzAEQzDE03DAgAFKSkoQ2v6Q8vJyJpMJ9bBjDb8Fi8X6QfgbExPDYDCi o6PFxMSwqijV1dVeXl4HDhzgcDhgCIZgCIZgCIZgiJXhzZs3xcXFIa79KaqqqhYvXgz1sEMMbW1t 2x7+2tvbz5w5c+LEicI76+vrm5qauvJ1PwqFIiUl9dlC0vHx8Tdv3qyvrwdDMARDMARDMARDfAxn zJhhb2/fvYb489U8jIuLi46OhnrYfsOIiIi2h7/q6uoREREKCgqCPWw2W1JS0sDAoCvf+mSz2VlZ WS0tLcL/aW1t7YwZM5qamsAQDMEQDMEQDMEQDHsWX83D6upqFxcXKOX2GzKZzO+Evz+Y97ehoUE4 bcQeQ0PDLq7BVCrV2NiYzWYL76TRaCwWCwzBkOD169c9KA/Lysr4fD6UMhiCIRiCYa/lq3lIp9Oh lDvE8PtfJP/s/8Tj8aSkpBBCpaWlCxYsWLBgwT///NM1KWzl7XSBIUJox44d+/bt67Iy+FnD58+f X7p0KTk5OTIyEts87OJ63AbDT58+HTlyZNasWaGhoZ39zKUNhmw2e8OGDba2tkePHiX+9O+//y5b toxEIuGTh1wud9myZYMGDbKzsysrK8OzHp46dSolJQXnlhIUFJSQkICnYURERGhoKOZtGf/eJiMj w9raWkVFZfTo0Y8ePYI8xNywR0TAUMpdZtiu8FeYOXPmjBgxIjo6Gmpw23jx4sWlS5dSUlK6JvwV SaqqqsaNG8dms/v06RMdHb18+XLcDI8cOSIrKxsSEhIXFxcXF4cQOnz48K+//oqVZExMTGFh4evX ry0sLM6ePYtnWaempo4cORLbqlhXVxcbG2tjY4OnnpOTU0hICIfDgU6jPXh7ey9cuDA3N3fu3Lke Hh6QIQDQQ2l7+Hvr1q33799bWFhAJrYZHR0dXV1d4l/IjbaRmJg4ePBgPz8/FRWVU6dOFRcX42ZY U1Ojo6PTv39/VVXVysrK0tJSJpNpZWWFlaSMjAxCiEwm19XV4TB/zZdUVlbS6XQymYxtVTx+/Pjs 2bOx1aNQKL/88suFCxeg02gzzc3NJBLJy8tLWlra3d29rKzss0eu+ODi4tKVN/sBoBeFv3p6eqmp qSEhIVlZWZCPbcPMzGzRokXW1tY4/2pijrKyclZWVmFhIUKITqffvn0bN8N169aFhYUZGRlxuVxn Z+cDBw74+PjgJjl+/HgKhTJp0qSPHz/OnTsXw4KOiYlxcHDAuSreuHFj1KhROBuOGjXqO69CAz9E XFw8NTVVcLUzceJEbAezbtu2zc7ODooMAL5F22drGzdu3Lhx4/DvrSQlJbHVk5WVHTZsGEJIUVER 6mLbGDlypLu7++jRo6lU6u7du5ctW/bZYHwcAvSYmBhiu6CgoKKiYvjw4bhl461bt96+fdvQ0HD+ /Hkul5uYmGhtbY2VYVxc3PHjx7GthxwO59WrVzo6Ojg3Fj09vadPn0Kn0X6CgoJu3LjRNe+9tI2i oiIxMTE8n+QAAA60/e7v7du3vb29vb29t2/fjm3yVFRUVFRUoJjbg5ubm5+fH86G/v7+r1+/VlVV LSgosLW1xfZxJEJo7969fn5+7969s7a2NjQ03L17Nw5Wnz59Wrp06eXLly9cuLB48eJz587t2bMH q3xraGgQExPD+VK2oqKif//+mE/yr6CgQCKRsG0g4eHhZv8XPO9Vs9nsgICAq1ev9unTB9uy3r9/ /5s3b+D3CwC+Rdvv/jo4OGD+LBIhpKqqCm+btpOAgACc8/Dhw4eS8cq/ewAAIABJREFUkpLm5ub9 +/c/ffr0qFGjXr58ieeQ9Ldv33K5XCMjozlz5vj7+9vY2EyZMmXatGlGRkbdK5aUlDR8+HBzc3OE 0KpVq3777bcDBw5glXX//PPPd9bvwQEajfbp0yc+n99JE3p0VNzG4XCwbc4uLi4uLi74d4kNDQ0e Hh443+mPjo5+//792LFj4fcLAL4FWbSTN3jwYMwfR+KPoaEhzm/mvX///uTJkzweDyHE4XBqa2s1 NTXxVN23bx9xH53P51MoFDKZLCYmhsMaSNra2snJyenp6Y2NjRwOh0qlVldXY5V1sbGxv/zyC87N RFZWVkFBoaSkBGdJJpOpp6eHbYDeU+7+ysrK4vy2xvv371euXHnp0iUYUwcA30FMtJN34cIFCQkJ zJ/dA+3B1dU1NDTUxsamsrJy5MiR8+bNw3O4S2ZmpoyMzIABAxBC27dv9/T0ZLFYc+fOHTJkSLe7 mZqa+vv7u7q6SklJjR8/Pj093dbWdsyYMZgM/21paWlsbJSTk8O8Kk6cOPHVq1fq6urYGmZlZX22 Di1W9JS7v2VlZdOmTevs6bHbzLZt25YtW2ZpaYkQKikpodPpsrKy8EsBAL0r/PX394cyFm2kpaXv 3r378uXL9evXh4eHf2cF7+5lyJAhgmUv9PX1O3vC/J9lzZo1a9asEXx8//49Rp2UmNiff/6Jf1Vc t27d1q1bcY4vw8LCTp06BZ1GO9HU1MQ29kUIvXnzRjB5i5eX12+//YbbNIsAgANkyAKgx1diMtnE xGTx4sXYxr5Ab2DAgAEKCgq5ubl46j179mzo0KHwKrDIY2pqeubMmaKiosePH7969crY2BjyBAAg /AVENgKeM2cO5APQvfj7+4uJYfpITU5ODre1BoHOYNeuXTIyMra2tr/++uuZM2fgpgAAQPgLAADQ iSgoKGD75uWAAQPwHz8NtB8lJaWLFy++ffs2KSkJ8xdGW4Ofn5+srCydTpeTk9PU1GQwGC0tLa38 bnV1tZqamqgWNJfLlZWVFX7dNjg42NnZGWdnd3d3Go1GF6I1axNWV1draWlB+AsAAAAAQG9h5cqV 1dXVNTU1jx49unHjRkhICORJz2Xv3r3VQsybN6+7TCD8BQAAAAAAdzQ1NSdOnFhUVIQQKigocHJy UldX19bWFqwflJmZOX78eHV19WnTphGHEdTW1lpaWhLvfZ49e3bQoEGqqqqurq4NDQ0lJSXm5uYe Hh6qqqrDhg2LjY0lvnLixAkjIyMVFZXx48e/ffsWIcTlcrds2aKnp2dkZHTy5EnisJMnTxoZGRkb G/v7+/P5fEwyisfj7dixQ19fX19fPyAggJheU0tLy9fXV0tLy8jIKCYmxtXVdeDAgQsWLCCmDS0q Kpo2bZqWltaUKVPS09O7WFhLS+vYsWODBg0yMTE5ffo0sTMoKGjQoEFGRkZnz56F8BcAAAAAgN5I fn5+XFwcsQLOnj17NDU13717d+fOncOHD3/8+JHD4bi5ua1du/bdu3cDBgxYt24d8a3m5ua5c+fa 2dl5e3uXl5dv2rQpKioqJyenoqLiypUrCKGcnBwVFZWCgoKDBw96eHiUl5cXFhb6+/tfvXq1oKBg yJAhQUFBCKHz58+npKSkp6dfu3Zt27ZtGRkZ9+/fP378+J07d1JSUp48eXLs2DFMMury5cu3b99+ +PBhcnJyfHz8X3/9RewnkUj5+flOTk6zZs3asGHD06dPMzIykpKSEEIeHh7W1tZ5eXnLly+fN29e 10/9npqamp2dfeLECV9f36ampocPHx45ciQyMjI1NTUhIQHCXwAAAAAAehHHjx8nxokaGxubmJgQ 61Pu3Lnz4MGDEhISbDZbXFy8pqYmNTW1b9++06ZNo1Kpmzdvnj9/PkKIx+MtX748Nzd3y5YtCCEZ GRlxcfHnz5+Li4vfu3dv0aJFCCEymbx582ZxcXFbW1srK6u7d++qqKi8fv3ayMiovr6eODlCKDw8 fO3atXQ63dDQ8MqVK/Ly8mFhYQsWLFBXV6fRaJ6enteuXev6zDEwMBCMo127di2xMyIiYs2aNcrK yoqKigwGQ7B8jKenJ4lEsrOzMzExGTFiBJ1OHz16dGFhYV5e3qtXr1asWEEmkx0dHalUanJycicJ b9y4UXjsb0ZGBrF/0aJFYmJiVlZW8vLydXV1kZGRXl5eBgYGsrKyGzduhPAXAAAAAIBeBDH2t7q6 Oj8/X0FBwdvbGyGUn58/adKkIUOG7N69m5hupaSkRENDg/gKEQcjhGpra3k8XktLS0xMDBH+njx5 8sSJE2pqaq6ursQAib59+wpWBtHR0SkpKSGTyYGBgYMHD54+fXp2djbxJ+Hz29jY6OjoFBcXnz9/ 3sLCwsLC4uDBg3379u36zHn9+rVgHG1gYCCxs7y8XLD+joaGxsePH4ntPn36IIQoFIqCggKxh0Kh IISKi4ubm5ttbGyItEhISBAjIjqDz8b+mpmZEfuNjIyElcrKygSvu2lra0P4CwAAAABAb0RRUXHh woXEo/DFixcvXrw4Kyvr6tWrdDodIaSsrCyI8yoqKohYUEZG5vTp0wEBAb/99ltLS0tVVZWRkVFC QkJOTg6NRjt8+DBCqLKysr6+nvhiYWGhiorK9evXExMTk5KSEhISiLvIn50/MjLy6dOnSkpKW7Zs SUtLS0tLi4mJ2bNnDyYZpaSkJJgRorS0VFlZ+YfHq6mppf2PP/74o+uX/PxsMXZiOAqx/eLFCwh/ AQAAAADojVRWVoaEhBALeVRWVmpoaJBIpMjIyPz8fA6HM3LkyKKiojt37jQ1Ne3fv58Y0iomJiYu Lj537lwZGZmzZ88ymcxJkya9fPmSRqPRaDQ2m40Q4vF4u3fv5nK5iYmJ8fHxdnZ2lZWVcnJycnJy 1dXV58+f53A4CCEnJ6cjR47U1dW9fft21apVJBLJyckpMDDww4cPLBZr0aJFkZGRmGTUtGnTjh07 VlFRwWKxAgMDnZycvn+8np6epKRkcHAwl8uNjY2dMmXKZ8FotyTh3Llz7969a2xsDA4O7gwfCH8B AAAAAMCUkydPKigoKCgo6OvrFxQU/P777wihvXv3enp6Dhs2LD093dPTc+XKldLS0pcuXdqxY4eu rm5mZuahQ4cEZyCRSHv27NmzZ8+AAQPc3d0dHR11dXVzc3MDAgIQQsrKylwuV19ff9WqVWfOnFFT U5szZw6ZTB40aNCsWbO8vLxSU1OjoqK8vb2NjY1NTU2nTJmyceNGMzOzGTNmODs7jx8/3tTUVF1d fcOGDZjk2Lx58+zt7UePHj1y5EhLS0tiiPP3AkEyOSQkJDw8XEtLKyAg4NKlS4LRIB3Of/7zHwUh vrUWj5WV1Zo1axwdHc3NzSdNmiQjI9PhJmLQtAAAAAAAwJB9+/bt27fvy/1z586dO3fuZzstLCwe PXokvEcwBsDKyop4mL5169atW7cKHyAmJrZ37969e/cKdtLp9OjoaMFHV1dXYmP//v379+8Xjqr9 /Pz8/Py6JWcoFEpdXZ3wHi8vLy8vLyKc3bJlC/G2nwDBWIJx48aNGzeO2CYmg0MI6evrE8OjO5Vv zdkscEMIMZlMYmPNmjVr1qwhthcvXtzhMnD3FwAAAAAAAOhFQPgLAAAAAEBvpG/fvsQLcACEv62l oqJiypQpjo6Ot27d6gyzp0+fCo/daQ8nTpwoLS3tpBxs5xLbd+/eHT16dP/+/SdOnCiYYKXNxMbG urm5GRoaDhw4cObMmXfu3Gl/As+cOWNgYKCmpubi4lJWVtaBWVdaWkqsLnPr1q32T7PS0NDg6+uL ZzObNGmS7P9wcXHB0LC0tHT69Onq6up2dnaFhYW46f3++++y/5fOm5ayzURHR5uamqqqqs6ePbu8 vBzDUo6IiDA1NdXR0fH29m5sbMTQ8MmTJ5aWllpaWsuXLydeS8KKtLS08PBwiBtECSqVOmXKFMgH CH9/gpiYmJUrV964cePq1audYWZubv78+fN2nqSlpSU+Pn7btm2fDZHBhOLiYnd39507d757927k yJELFy5s86mam5u9vb3379+/dOlSYu6SOXPmrFmzZvXq1e0xfPXq1Z49eyIiIrKzsyUkJLZt29ax 4cK9e/eampp+/fVXMrm9DyL8/PyCg4PxbGZ5eXkvX74sKysrKyvDcMF6Pp8/ffp0Nze33NzccePG dWwpdwgrVqwo+x/x8fFDhw4dMWIEVoYVFRUeHh67d+9+9eqVhIQE8UoNVrx+/Xr58uV//fXX69ev a2trhUc6YgKXy50/f76vr++bN28qKyvxWUNLODqH8BcAenv4y+PxSCRSp86O0b9//3betV2+fLmv ry+e9zkQQikpKaNGjbK1tZWVlfXx8Xnz5k1VVVXbTnXgwAE+n3/nzp0JEybIysr27dvXxcXl8ePH 8fHxZ86caU/c5ubmNnjw4D59+ri4uOTl5XVg8rOyskxMTN68eTN48OB2nurWrVtv3rzBs5QbGxur qqp0dHRkZGRkZGSkpKRwM3z06JGEhISrq6uEhMTGjRuF3wvBBHFxcZn/4e/vHxgYKC4ujpUhk8mk 0+kODg5ES3n9+jVueXjnzp3x48cPGTJESkpq1apVnXTboj0kJibS6XQnJycqlcpgMC5duoSboY6O jo6ODuY/6n5+fsTcCAAAdEr46+DgcPz48RkzZsyePbuT5BwdHW/fvt2eM5w5cyYtLU1RURHP3Hdw cDh//jyxnZmZqa2tTSzK8rNkZmZev36dmOV7165d48ePnzBhwqlTp8LCwo4dO3b06NE2G06ZMmX3 7t0sFuvhw4dnzpzpqAf3RUVFFhYWFy9eDAgImDFjxsuXL4mFfNrGx48ft23bduTIkY4tnWPHjrm6 uubm5iKEHjx40OaLqIKCAmItRzU1NUdHx469hOgQ3r9/r6ys7OnpaWRkNG/ePD6fj22H9ffff/fv 3x+3W78IIUNDQz6fHxYWVlxcHBoaamNjg5shh8MRlKy4uHhRURGXy8XKsLCwUHAlbGBggOEgnNGj R3852wBuLFu2bObMmRDcAEBnhb+KiorR0dGRkZGdN25m7NixxMzVooqMjAyxTOKtW7c8PDza/Djy jz/+8PDwoFKp/v7+paWl9+/fv3Tp0oYNGwwMDCwtLT9+/FhRUdEez8zMTD8/v/fv3wvWJ2wnGhoa xPrs6enps2fP3rNnj2D6lZ+Fz+d7e3tv3769X79+HVg0XC735s2bHh4ekydPTkhIOHLkSJtvN9bU 1IwcOfLChQv5+fkGBgYeHh641UMWixUbGzt16tTHjx/r6en9cJLI7oLH4+3btw/PEd7EwvSLFy8e OnTokydPGAwGboYTJ06Mi4tLT0+vrKw8fPgwn8+vqanByrCiokIw2yiNRuNwOLW1tVgZysvLm5iY YP6zkpmZieGVAwDgRtvn/X348GFoaChCSFdXt5N+kCgUiqysbHV1NbGkoUhSXV3NYDAyMzMvXrw4 ZsyYtp3kxYsXc+bMaWlpCQ4Ozs7OJpPJdXV1ampq1tbWtbW1kpKS8vLy7ZG0sbFJTk4ODw/38PDo qOUHCwoKtLW1SSRSdnb2vHnz2nyeP/74Q1NTc9KkSR37Wl5jYyODwZg8eXLfvn337NkzevRoYiHy NjBixIjr168T26tXrzY0NKysrOyW1eG/BZ1OHzp06PTp0xFCK1euDAwMZLFY7awzncHdu3cVFRXb P1SmM0hKSjpw4EB6erquru7Ro0ednJxwu3QfNmzY4cOHly9f3tLSsmDBgps3b8rJyeEWXArWnq2t rSX6f/iR/lk+fPiA8wMcAMCEtt/9tbKyOnXq1KlTpzr1ZsykSZNiY2NFNfebm5udnZ3l5eVTU1Pb HPsihFRVVYuLi3k8Hp/PLy0t5fP5u3fvdnBw4PF4Pj4+GzdubPOLZb///vu5c+eIbQsLi7y8vJaW lvYnfM+ePRMnTnz//v2IESPi4+M9PT3bPOH2kydPrly5oqysbGxs3NTUpKys/Pjx4/YbysjIEI81 Ro4cGRkZ+Z///KfNp0pNTRVEQuLi4mQyWVJSEqt6qKWlJfx7SSKRxMRwXBAnNDRUMP88biQkJNja 2g4ePFhCQmLZsmWZmZntfOTS4TQ2Njo4ODx58uTZs2fW1tba2tptvqLrJHR0dN69e0ds5+TkEJfH 8CP9s5SVlX38+BHyAQA6K/ztGmxtbePi4kQ196Ojo1taWvbu3cvj8Zqampqamtp8KRIaGiohIfH7 77+7urrOnDnTwsLizp0748aNGzp06KpVq9psqK2tfeLEiezs7JqamqNHj44ePbpDAqNNmzbNnz9/ y5YtERERJiYmaWlpkydPbtupzp49S0wIkJWVJSkpWVZWNmrUKKxKuby83N3dPScnh8fjnThxYsKE CZ2xfmN7sLGx+fjx471793g83smTJy0tLWk0GobXinfv3rW1tcWzLVtYWMTGxr548aKhoeHYsWMD BgxQUFDAyrCysnL48OHv379vaGjYs2dPZ6yi1E6srKw+ffqUmJjI5XJPnjyJ7aUO/ndVOBwO5AMA fB/cFz2WkpLi8/mNjY0Yvi/ffp4/f/7s2TPhn8mSkpI2jPRYsmRJSEhIYGDg2rVrBQMJ2vMymYBp 06YxmUw3N7eqqqoRI0a0ZxKJz0hPT3d2ds7IyBg+fLhot7GpU6cWFRXNmjWrtrZ2zJgxp0+fxs1Q XFw8LCxs7dq1Xl5e5ubmHVjKHUh6ejqdTldXV8ezlO3s7DZt2jRv3jwWi2VqanrlyhXcDFVVVTdv 3vzLL79ISUkRsyLiZkihUMLCwlavXl1ZWTlu3LgNGzbALzQAAL00/EUItT9cECwhjRvbtm3rkDlW JSUlQ0JC3N3dnz59unTpUlNT09ra2vj4+OnTp1Op1HaefP369evXr+/wtEdFRSGEhgwZ4uTk1CEn VFZWxu1xs4AVK1asWLEC51ZmYWGB4UISwowePfrt27c4Gy5btmzZsmU4Gy5atAjb9xoJzMzMRPt1 ZwAAMAEWPRYRBg4c+PDhwxEjRhw5csTc3Hzy5Ml37979999/IWcAAAB6Dzo6Otg+JAEAfBCDLGgn v/32GyYm4uLia9aswfCZJgAAANA1YDiqGwAw5Kfv/pLJ5Obm5q4XZbPZrZy+oIsNBTPwY2uIfx6C IRiCIRiCIRj2QqCUu9KwXeGvlJTUy5cv2Wx2F6ctOzu7lW+/gSEYgiEYgiEYgmEvN+wRsS+Uclca CvPTgx9kZGQaGhpSUlK6csFMCoUiJSXVyumiwBAMwRAMwRAMwbCXG+IPlHIXG7Yr/EUISUtLS0tL 41ylwBAMwRAMwRAMwRAMRQko5Q4EZn4AAAAAAAAAehEQ/gIAAAAAAAAQ/gIAAAAAAABALwx/ZWRk sF1Jq7a2lkajgSEYgiEYgiEYgiEYigY1NTVQyh1i+P1jKAwG4zvr4v7zzz99+vTR1dXFMHnJyck1 NTUKCgpgCIZgCIZgCIZgiI8hnU4fMGAAxLJtICkpqba2Fuph+w3d3Ny+dUBjY+MPZn5YvXo1g8EY P348hULBKm1VVVXHjh07dOhQU1MTGIIhGIIhGIIhGOJmKCYGK8v+dB4GBQVBPewQw+8f9oO7v3p6 etLS0j4+Prq6ulpaWjwer9sTJiYmlpqa6uPj4+npOWfOHDAEQzAEQzAEQzDE0FBTU1NDQwOC2laS kpLi5+cH9bCjDL9zZGNjI2IymZU/IioqauzYsfhUkbFjx0ZFRYEhGIIhGIIhGIIhGIoGUMqdYfhV mExmq8LfixcvWlpainCds7S0/Cy/cEsyGIIhGIIhGIIhGIpwKCIpKenk5JSXlweF0oGG3wp/SUwm U15e/jvnCg4OPnr0qK+v74ABA5SUlESvwpWXlzOZzP3793t6ejIYDOEk6+rqKisrd7thWVlZbm4u GIIhGIIhGIJhLzdsZSjC5/NJJFIPCkV4PB6TyQwICGCxWPfv39fQ0IBq037Db8FisX4Q/sbExDAY jJs3b4qLiyORpqqqavHixQcOHOBwOAwGIzo6Grcx+9XV1V5eXmAIhmAIhmAIhr3QsJWhCIlE4vF4 PSv2FQ6CPTw8mpubt2zZsnbtWqg27TG0tbVte/hrb28/Y8YMe3t74Z319fVNTU1cLrfnBrsUCkVK Suqzlanj4uKio6Pr6+tnzpw5ceLE7k3yVw3j4+Nv3rwJhmAIhmAIhmDYqwzbHIrweLz6+noOh4Nn KEKj0fr16yc8eQKLxXJyctLS0lq4cCFUm/YYRkREtD38VVdXj4iIUFBQEOxhs9mSkpIGBgbfmS8C f9hsdlZWVktLi3AqqqurXVxcmpqacEjyVw1ra2tnzJgBhmAIhmAIhmAIhq00xPZ+MI/HKyoqys7O 7t+/v7Cei4tLSUlJdHQ0VJv2GDKZzO+Evz9Y9a2hoUE4bcQeQ0PDHh37IoSoVKqxsTGbzRbeSafT WSwWJkn+qiGNRgNDMARDMARDMATD1htiOw6YTCZramrSaLSmpqbPUt3c3AzVpp2GP8j8NlysSElJ oZ4PlUpt5f357koyGIIhGIIhGIq8YWho6OvXr/E0bGlpqays9PT0bGlpgVLuDEgkEo1G+yzVEhIS 0PQ6w7Bd4S8AAAAAAB1CRUXF/v37f7hCVXdx9+7dBQsWJCcnz549u7m5GcqrM8Bt1bReAoS/AAAA ANA9hISE+Pj4lJSUVFRUYKjn4ODQv3//wYMHr1u3TuQngAJ6FbAeNwAAAAB0D5GRkbdv3yaRSBcv Xly7di2GhosXLzYwMCguLobCAkQJuPsLAAAAAN1AQkLC8OHDqVTqjBkzIiMj+Xw+hpIjR46Uk5Mz NDSE8gJECbj7CwAAAADdwKhRo8aMGYMQolKpt27dggwBAAh/AQAAAECUkZSUFGzLyMhAhgBAlwGD HwAAAAAAAAAIfwEAAAAAAAAAwl8AAAAAAAAAgPAXAAAAAAAAACD8BQAAAAAAAAAIfwXQ6XQ6nS4n JycrK0tsDxs27MvDhgwZkpub2+NyNj09fdq0adra2oMGDZo/f35+fj4mYiEhIUOGDBF8tLGxWbBg AbHN5XKVlJTi4+MxUdXS0pKTk6MLUVhYiE8R5+bmCqqunJycjo7O+vXr27DyeOexZ88eQk9WVpZG oxHbV65cwcdw06ZNY8aM4fF4gj2zZ8/29vbGxzA5OdnIyEh4z+LFi/ft24dhn+Pn5+fn54dnf/j0 6VNnZ2ctLa3BgwcvWLCgoKAAN0Ph3sbIyOjcuXMQHwCYU11dLSsrW11d3VEnfPXqlb+/f3e1rC7u bMndW3LV1dVZWVkUCoXYfvbsmWhUynv37k2fPt3FxSUjIyMuLs7ExMTS0vLdu3c4uFlZWeXm5paX lyOEWCzWmzdv4uLiiPgjKyuLw+FYWFjgk5OPHj2qFkJTUxOrgpaUlCTEampq/vnnn9DQUNyCS0LP 3d198+bNxLarqys+hr/99ltFRcWff/5JfExISEhKStq+fTv8sIkSDx48IPrDZ8+ePXjwAKv+UJj4 +Pjq6ury8vKAgAAGg/H69WsoO6D3wOFwqqqq0tPTe0nLwm7ww4kTJ4yMjFRUVMaPH//27Vti540b N4YOHaqrq7tjxw4818URhs/nr1+//uDBg/Pnz+/bt6+qqqqvr++SJUs2btyIyU0OTU3NJ0+eIIQS ExMnTJigrKyckZGBEHry5Mnw4cOlpaWhI2gDAwcOtLKyKioqgqxoPbKysvv379++fTuLxeLxeH5+ fv7+/kpKSpAzIgOfz1+3bt2BAwfc3d2J/tDHx2fx4sX/+c9/8BSWlJR0dXXV1NTMysqC4gN6Clpa WseOHRs0aJCJicnp06cRQh8+fJg6dWr//v2NjIxu3LhBHHby5EkjIyNjY2N/f38imnJzc/vzzz/N zc0vXbq0ZMmSp0+fenp6dkHLunr1KmGyY8cOe3v773yxpKTE3Nzcw8NDVVV12LBhsbGxIhj+FhYW +vv7X716taCgYMiQIUFBQcT+2NjYxMTE+/fvX758OSIiAvNaWFBQ8OHDh9mzZwvvXLhwYUJCgvBD 3m7EysoqLS0NIRQXFzdu3LgJEybcv3+fCH8tLS2hH2nbb/zTp08zMjLs7OwgN36KadOmDR8+fNeu XefPnyeRSEuWLIE8ESUKCgpKS0u/7A/j4+PxvJfR3Nx8/fr1goICfX19KD6gB5GampqdnX3ixAlf X9+mpqYDBw7o6Ojk5+fv3LnT19cXIXT//v3jx4/fuXMnJSXlyZMnx44dI74YHBz8999/e3h4nDlz xtzcvJNG/gi3rPz8/E2bNkVGRj58+LA14WxOTo6KikpBQcHBgwc9PDyIx9ciFf6qqKi8fv3ayMio vr5eXFy8pqaG2P/rr7/S6XQdHR1vb2/8V4YsLCxUU1MjkUjCOzU0NBobGzukzDok/E1NTUUIPXjw YPz48ba2tnFxcUTjwS38tbS0FAz8VVVVxa2sm5qaFBQUFBQU5OXlbWxsli1bZm5uDr3wz3Lo0KGQ kJCtW7ceOnSIQqFAhogS3+oP2Wx2WVkZVqq2trYKCgqKioobNmw4cODA0KFDofiAHsSiRYvExMSs rKzk5eXr6uoUFRULCgoKCwunT5+ek5ODEAoLC1uwYIG6ujqNRvP09Lx27RrxRTc3N21t7a5sWZGR kdOmTdPT05OXl1+8ePGPQ1UyefPmzeLi4ra2tlZWVnfv3m2/FV6LHpPJ5MDAwOvXrysrK0tLSysr Kwv6SmJDR0enQ5LdqWhoaJSWlvL5fOEev6ioSEpKCpOnulZWVmvXrmUymY2Njfr6+mpqavPnzy8s LMzPzx81ahRWmfno0SPhF/VwQ1JSsqKiAiHE5/MfPXrk7Ow8ZcoUY2Nj6Ih/Cm1tbQ8Pj7dv344Z MwZyQ8T4an9YUlIiKysr6OEx4f79+2ZmZlBkQA9F8N4YcRNkFN9cAAAgAElEQVTB29u7tLR0woQJ dDqdwWAsWbKkuLg4KSkpPDycOKx///7ERmffWvqyZX348OGn/ve+ffvKysoK4sCSkpIOCDixKrzr 168nJiYmJSUlJCTMnz9fsL+4uFhwI0FdXR3zKqilpdWvX7/r168TH1+8eHH79u2//vpr3LhxZDIZ E0MlJaWjR4+OHz8eISQjI2Nubn7o0CFTU1NBDQN+ChKJZGVlZWZmRlxkAz+LvLx837598RRjsVjC eyoqKhQUFKDI2tYfEoSEhFhZWX12SxgAgHb+DAl/LCsr27dvX0FBwYkTJwICAj58+KCkpLRly5a0 tLS0tLSYmJg9e/b8NxDs8shEUVHx48ePxLZg4zudbWVlZX19vSAOVFFREbXwt7KyUk5OTk5Orrq6 +vz58xwOh9h/+PDhurq6wsLCkydPuri4YF4FyWTykSNH1q9ff+XKldra2ubm5qVLlwYGBu7duxcf SSsrKyIiJz7a2tr+9ddfMPC3nfTp06eurg7yQZTQ19dXUVHx8/N7//59U1NTWFhYWlraxIkTIWd+ tj8MCwurqan59OlTYGDg2bNnDx06BJkDAJ3H5s2b9+3bx2azlZWVeTweh8NxcnIKDAz88OEDi8Va tGhRZGTkl99qamrqArepU6feuHEjLy+vpqZGMPPPdzpbHo+3e/duLpebmJgYHx/fIe/Y4BX+zpkz h0wmDxo0aNasWV5eXqmpqVFRUQih4cOHjxw50s7OztPTs0e8WmRvb3/t2rXQ0FATExNnZ+cxY8Y4 Ojru2LEDq/C3ubnZxsZGEP42NzdjGP7a2NgoCPHZPSTcGDhwIFFjAZGBQqH8/fffxcXFdnZ2Ojo6 Fy5cCA8P19LSgpz52f7w0qVLQ4YMsbCwSE1NvX37Nm6TGAKAiLF9+/b4+PgBAwY4Ozvv2rVLS0tr xowZzs7O48ePNzU1VVdX37Bhw2dfMTAw+Pfff+fOndvZboMHDw4ICLC3t7ezs7O3t6dSqd/vbJWV lblcrr6+/qpVq86cOaOmptZ+h+4f+6upqSmYtJlOp0dHRwv+RExQ6uTkhBDCKnZsDRYWFp9FQs+f P8dHz93d3d3dXfBx2LBhGN62xHBufGF0dXWJgb8CBM+ScOPUqVOYtxds12tACOno6ISGhuLf5+C5 GMe3+kPobQCgndDpdMEPt3AFZjKZCCEFBYXExETh40kk0peL44SFhQm25eXlMzMzu6BlZWVl5eTk vH37lkQi+fj4CN76+FZnKyYmtnfv3o59hC4GFajLMDU1hUwAAAAAAKA3Y2BgQKFQxo0b19zcPHz4 cAaD0fUOEP4CAAAAAAAAXQSFQmn96p59+/Y9fPhwhzuQoRgAkSE9PX38+PFaWlrW1tb4T5AHAEAv 5969e6amprW1tZ33X+zbt09NTc3LywvbTDAxMVFQUHj48CHUB+CrUKnUKVOmQPgLAF+nqqpqxowZ O3bsIBa5+fTpE+QJAAA4Y2dnd+jQIcHqA53EypUrg4ODsc2Ely9fWlhYQGUAuhgY/ACICNeuXXNw cCAmr7C2toYMAQAAf2xtbSETAKDrgbu/gChw6tSpffv2ZWRkuLi4uLi4/P7775AnAAAAHcWFCxcg EwBRAu7+AqKAt7d3SEjInj17rKysIDcAAAA6luPHjy9cuBDyAYDwFwDw6ppLSkrWr1+vpqZGIpH+ +usvGo0G2QIAAAAAAIS/gGiycuVKDoeTn58Pwx4AAAA6ivDw8N27dyOE8vLyzMzMEEL+/v7Tp0+H nAEg/AUALJg1a5aFhYWrq+uYMWPS0tLIZPLw4cMhWwAAANoM8TYFQsjCwiItLQ0yBBAZ4NU3QERQ V1e/dOmSn5+fhobGunXryGSo2wAAAAAAfAW4+wuIDuPGjYO50wEAADocuPULiBhwhwwAAAAAAACA 8BcAAAAAgB4OnU4PDQ3FfNHjwsJCSUlJKCygK/npwQ9kMrm5uVlcXLynp5zNZrdyeGh3JRkMwRAM wRAMwbA9eHt7e3t742z48uXLHlTKnQFU7C4z/D+2P/sFKSmply9fstnsnh77ZmdnS0lJYZtkMARD MARDMARDMBThUISglXe+oVDabyjMT9/9lZGRaWhoSElJ4XK5Pbe2USgUKSkpGRkZbJMMhmAIhmAI hmAIhu0xbGho0NXVNTExwTkgaWXoBtWm/YbtCn8RQtLS0tLS0qg3gX+SwRAMwRAMwRAMwVCY+vp6 eXn57xxw4cKFlStXUigU4qO6uvqGDRsWLVr01YOvXr3K4/Hc3NygUEQgPoRX3wAAAAAA6KXY2dlV V1dXV1ezWKzt27evWbOmoKDgq0fm5eXl5ub+8IQcDgdyFcJfAAAAAAAA7OMhMnnGjBkyMjIlJSUI oYcPH44ePXrAgAELFiyorKz8559/Tp06debMmaCgoH379u3YsYP41qFDh4htNze3P//809zc/ObN m+7u7nv27DEyMho4cODatWt79GBRCH8BAAAAAABEk6ampkuXLsnJyZmZmVVUVLi5uR08ePDt27ca GhrLli2bOHGit7f3kiVLVq1a9a0zBAcH//333zNnzkQIXb58OSEhITk5OSoqCtZjwpAfjP2VkZGp qKhQUFDoDXlRU1NDo9F4PB62Sa6trQVDMARDMARDMATDjuL+/fvEmZubm3k83p07d6SkpK5evWpm ZjZ27FiE0IoVKwYPHlxbW/vDU7m5uWlraxPbM2bMUFRURAiNHTu2qqrq5yIzMTFxcXGoNu00/P4x P7j7a2xsnJGR0UsuBdLT04cNG2ZsbPzs2TMwBEMwBEMwBEMwxMSw80IRW1vbioqKioqKT58+7d69 e/78+Twer7i4ODMz08LCwsLCYvr06QYGBnV1dV/9Op/PF2yrqqoKto2MjIgNwXt1rUdeXl5JSQmq TTsNf3CN8f0/r169msFgjB8/XkxMDIk0VVVVQUFBhw4dampqIpLchirb2YbHjh0DQzAEQzAEQzDs nYadGopISkouWbLE39//33//VVJSmjp1alBQEEKopaXlyZMn/fv3Fz6Yx+MRG+/evVNXVye2hRdf IJFIbTbR19eXlpY+cOAAVJv2GH7/sB/c/XVwcPDz85s9e3ZKSooIx74pKSmenp6enp62trZEkmfN mvXkyRNMgn4xMbEnT56AIRiCIRiCIRj2WsMuCEWoVCqVSq2rq/vll19u3bqVmprK4XD27Nmzfft2 4oCmpiaEkJycXFxcXH19fVFRUUxMTIdrKCsr6+npQbVpp+EPjmYymZU/IioqihgBI6qMHTs2KioK 5ySDIRiCIRiCIRiC4fe/ZW5uni5EQkJCfn5+y7cJDg52dHQU3jNq1KiDBw+2tLTcvHlz6NChysrK kyZNys3NbWlpiYuL09bWPnToUHl5uZubm4aGRv/+/RctWrRly5aWlhYXF5fw8HDiJG5ubmFhYcS2 u7u7YP9Xyc/PT0hIENbetWuXn58fVJsOMfwqTCazVeHvxYsXLS0tEYCQpaWlcM7m5eXNnTtXU1MT Ez1NTc3ly5fn5eWBIRiCIRiCIRj2KkM/P79du3b9VPiLA98Jf3GLvj4LgXqE4bfCXxKTyfz+mijB wcFHjx719fUdMGCAkpJSb459y8vLmUzm/v37PT09GQxGYWHhkiVLTExMxowZY2pqioPh8+fPk5OT k5KSrl69qqGhAYZgCIZgCIZg2EsMiWnLfvnlF8Ff6+vrtbS0BGNz8aS4uLigoEB42d47d+7U1NQo KioS0Zeurq6ysnK3e5aVleXm5gpCIOH4EFvDb8FisX4Q/sbExDAYjJs3b4qLiyMAIYRQVVXV4sWL 9+7du3v37qlTp06fPh03wxs3bsTExNy+fdvOzg4MwRAMwRAMwbA3GE6YMIFOp4tG+Pv06dPExMTo 6GjcJh6orq728vI6cOAAh8NhMBg4G35n+C+LxfqB9JEjR9avX/9Z7FtfX9/U1NRLVjGhUChSUlLC a1j36dNn5cqVu3btqqurmzp1qvDBXC63rq6uixc8lJSUlJGREX710snJKTQ09PTp07W1tWAIhmAI hmAIhr3BsKSkhE6ni0bs8fjx419//fWzyLLro68vQyA6nb5q1aqgoKD6+nrMDb//9tsPwt9Xr17t 2rVLeA+bzaZSqWZmZlQqtTeEv2w2Oysri0i1YKeZmVlAQICzs7NwwfP5/JqamkGDBgnP/NcFlJaW vnnzRl5eXjDNColEsra2TkpKGjVqFBiCIRiCIRiCYW8wLC4uNjQ0FI3Y49OnT2ZmZt0efX01BDI3 N9+1a1dTUxMO8eF3DL//xR9MfNbQ0PDZkh4NDQ2Ghoa9JPZFCFGpVGNjYzabLbyTTqez2ex+/foJ 72xqalJSUuriXgAhpKqqqqysTMzGIkBOTq62thYMwRAMwRAMwbCXGH72S92jaW5uxiH6+moIRKPR WCwWJvHhdwzbFf5+CY/Hk5KSQr0JKpXamjv5XC5XQkKiWwwlJCTAEAzBEAzBUCQNc3NzZWVlY2Nj ZWVl6+vrIQ9bbyhKdFf01coQqEcYCiOGAAAAAADAFVVV1ZiYGCMjo5iYmN7z6BUAOhUIfwEAAAAA X6SkpKysrBBCxL8AALQfMmQBAPy/9u40oImrbxv4hGBYwlpAFFlc0bssKpsSwQUQlSqrrWurYNEI ciNVpNxVeOoCIm6IC60FRbFaFFlERVp7W1kURFAEWxVkFaQVEREia94P8z5586JilO0Ert+n5CSB a86ZnPlnMjMBAAAAlL8AAAAAACh/AQAAAABQ/gIAAAAAoPwFAAAAAED5CwAAAACA8hcAAAAAAOUv AAAAKVpbW2fNmjVixIgJEyYkJiaiQwDEEX72AgAAQFQtLS0//fTTmDFj0BUA4qsv9v5GR0dzOJyh Q4fq6+vv3bu3p/5sfn4+h8MR/fkcDic/P5/MYTh9+rScnNyPP/5IZrzdu3cbGBhoamra2NicOnWK tHiLFy+Wl5dXVFRUVFQ0NTWNiIggLeH9+/fl5OQUhSxdupSohDweLygoyNDQUFVVdeLEicHBwW1t bUQltLW1PXPmjODuw4cPVVRUiJ1Yt23b5u3tTVoqPz8/Pz8/wV1fX19LS8v6+nqiQk6fPj05OZnY kTUyMuJyuYLat76+XlFREZXEh8rKypo3b56GhsbYsWO9vLxevnyJPvnQ+ofepigoKGhpaX3++efl 5eUfVywFBgYWFBT0XlQdHR0FBQV6w6enpxcVFdUjCyUG5W94ePjBgwfDwsIqKiqOHz9+6tQpYou8 fnTu3DkOhxMXF0dgtujo6Li4uJMnT1ZUVBw6dGj37t0XLlwgsECvr69/9uzZgQMHDh06dOTIEdIS Kioq1gv5+eefiYq3du3anJyc06dPl5WV7d+//9q1a9988w3emAPY999/n5aWlpiYiOrtQ128eDE1 NRX98NHu3LmzcOHCr7/++tGjR7/99ltNTY2Xlxe65UOpqKjU19e/fPny9u3b+vr6NjY2PB7vI/7O 7du36+rqejXqtWvX6uvr//7774CAAG9v7z///LO3F6r/y9/nz58HBwfHxMSYmppKSUmZmJiEhISk p6dTFFVWVmZvb6+pqTly5MigoCCKos6cObNs2TJLS8vhw4fb2toWFRVRFFVdXb1gwYLhw4fr6em9 6yirjo6Obdu26erq6urqBgQEtLe30/962bJlWlpa5ubmaWlpws9ft27dl19+2dHRQchK/Pz584yM jJ9++iknJ6eyspK091h2draVldWkSZMYDMb48eM3b9785MkTMqeDIUOGmJubHzhwYM+ePXw+H/Oj iJKSku7evfvLL7/o6emx2exZs2ZFRUXxeLzW1lZ0zoAUGhp64cKFCxcufPLJJ+iND7VhwwYfH5/e 2yoPeP7+/gEBAS4uLmw2e+TIkYcOHcrLy2toaEDPfJyhQ4cGBgbq6OjQ382+fv3a29t7zJgxHA7n zf0sR44c0dPT09fX37JlC5/PDw4Ozs7O5nK5mZmZXb+w+6SkpBYtWqStrU3vbI6NjaWTbNu2zdbW tuuF0tHRCQ8PHz9+vIGBwQ8//CAG5e/du3e1tbXHjx8vaLGxsTlx4gRFUcHBwdra2o8ePbpy5cre vXufPn1KUVRiYuKGDRvKy8tnzpzp6upKT9OjRo0qLS3dvn37pk2b3vpfTp8+fenSpbS0tMzMzGvX rtF//5tvvtHS0iouLv73v/+9ZMkSwTe5QUFBxcXFP/30k4QEKaf9JSYmzpkzR1tbe/bs2fHx8aS9 tWxsbKKiorZu3VpQUMDn811cXLhcLslzwYwZM549e1ZdXY1pUUQZGRlOTk5DhgwRtIwYMeLo0aPC LTBgHDlyZN++fcnJyWpqauiNjzBv3jwDA4OdO3eiKz5Ca2trZmams7OzoEVNTS0/P19eXh6d0x1W VlZ37tyhKGrnzp1Pnz4tKCg4efJkQEBAdna24DlXr149dOjQlStXbty4cevWrfDwcH9/fzMzs4iI CA6H08ULe2roz58/X1ZWpqurW1pa6u/vn5CQkJaWlpKS8t6FoigqKyursLDw8OHDmzZtam5uJr38 LS0tVVdXf+tD27dv3717N4vF4vF4Q4YMoQ/9MTExcXR0HDJkyKZNm0pKSsrKylRVVcvKysrLy52c nB48ePDWPxUfH//vf/9bXV1dVVXV29s7Pj6+ra0tISHhP//5D4vFWrJkyZ49e1paWiiKOn78eFBQ UEREhJSUFDlrbWxs7LJlyyiKWrhwIYHHPzg5OcXFxZWUlNjb248ePfr7779/9eoVybOAhISEiooK /YGKHPQxggJE7UEvLS0VHEd7/Phxlf9Ff1FDDnd3d0EHmpiYYIP3EVJSUk6dOqWgoJCRkYHe+Gih oaGRkZGFhYXoig9VXl7OZDJJPnBfTA0dOpTe6p05c2b9+vUyMjJjxoyZN29eQkKC4Dlnzpz56quv NDU15eXl3dzczp49K/wXunhhN1lbW6uoqKiqqm7cuDE0NHTixIkJCQkODg7jxo1TVlb++uuv37tQ FEW5urpKSkpaWloqKyv3SBHSu1d+0NLSqqmpEW5pbGykB6C0tHTjxo3//POPnp6epKSk4Pn/N5ak pJaW1pMnT7hcblVVlZWVlaKiore3t7u7+5v/5e+//9bU1BT8hadPn9bU1MjJySkoKNCNixYtom+k p6fPnj07IiIiODiYkFW2uro6PT29oKBAQkKira2tvr6+tLR05MiRRL2vOBwOfeD8jRs3tmzZUl1d TeDpZQIdHR21tbXDhg0jKhVpJa+wUaNGPX78mL69cuXKlStXUhQ1c+ZM0g4gOXr06OLFi+nbDx8+ NDc3JypeW1sbj8cjfCcWk8lMSEi4c+fOqlWrLCws3rV7At67adu0adP69etjY2PRGx9kxIgR7e3t DQ0Nwu+UjIyMsWPHYm3sjn/++WfYsGF8Pv/JkydeXl6C77cXLFggeE5lZWVGRsa5c+fou8OHDxc8 1PULu+nq1atGRkadKh/Bf9fQ0Oh6oejbenp6gkmsR1L17t7fiRMnlpSU/PXXX4KW33//fffu3UOG DPn666+//vrrgoKC2NhYwbkXgiNf29vbq6qqhg0bVlNTExISUlZWdvjw4YCAgLd+oz106FBBYVFV VaWurq6mptbQ0NDU1EQ3hoWFPXv2jKKo8PDw3bt3R0VFCTb2/e78+fMuLi4VFRVlZWVPnjyxt7cX rJqE0NPTy8nJoW+bm5tv3ryZtJ2CnaSlpamqqgq/saFrVlZW586dEz75mv4KDD3zoVO8oCJ//fq1 4FM9UWbPnq2qqmpjYzN//nycb9QdHh4er169io6ORld8EGlp6QkTJly9elXQ0tjYOH/+/N4++2rA ++9//0ufoqOmppaUlJSdnZ2dnf3LL7/Qx5EKiqXAwED6ocuXLwvvB+z6hT1OVVVVsFu3i69q6YUS JOzZDL1b/qqpqW3cuHH58uW3bt1qaWnJzs728/Ojjxx9/vy5lpYWg8FISEgoLS2lD064devWxYsX Ozo69u7dO3z48FGjRm3evDkkJITH46mrq3d0dNBP68TBwSE8PLy2traurm7//v329vYsFmvOnDm7 du1qb28/f/78nj176Aqb3qu/cuXKLVu2ELLKxsXF2dnZCe7a2dmdP3+eqDeVi4vLpk2b/vzzz46O jpqamqNHj9rY2JD5/m9vb8/JyfH29t6wYUOPv1UGMFtbWxMTk0WLFuXn57e2tt69e3fFihWCL09A ROPGjSsrK8vMzHz16tXVq1cNDQ1JThscHJyfn0/gdQzFhaSkZFhYGI4A/giBgYHfffcdvV+so6Nj y5YthoaGEyZMQM98nOfPnwcFBZWUlNBHUdrb23///fc8Hu/x48ezZ88uKSkRPNPe3n7//v3V1dV1 dXWurq6CwxvoQ2m7eGGPW7BgQWJiYklJycuXL48dO/beheoNvX7618aNG93c3Lhc7ogRI9zd3d3d 3eldDjt37nRzc5s8eXJOTo6bm5unpydFUdbW1seOHRs5cmRKSkp0dDSDwdi6deu1a9fGjBnj6Oi4 Y8cOHR2dN//FsmXLbG1tzc3Np0yZYmFhQX9kOXDgQEFBwciRI3fs2HHy5Enhk3i+/fbb69evk3Do W1lZWW5urvA5j3PmzLl37967jnLuF99///1nn322cuXKYcOGzZgxQ0NDg75SB1E2bdqkoqKipqbG 5XK5XO7atWsxJ36QM2fOmJubr1y5cuTIkd9+++3WrVs3bNiAk1E+yOjRo0NDQ1esWKGvr29sbNx7 s3aPUFBQOHTo0KZNmwi82szy5csFB6CTfKKtmZmZ4Mg6EJ2dnZ2Hh4elpeWkSZM0NTXv3r371gII ulZbW0u/RwwNDfPy8n777TcZGRmKorZu3drR0fHpp5/OnTv3m2++sbS0FLzE2dnZ0dFx1qxZdM9v 3LiRrrvWrFmTkZHRxQt73IQJEwICAmxtbW1sbGxtbenkXSxUr3yC7e0RYjAYHh4eHh4endqXLl3a 6cr/Z86cUVNT++mnn4Qb9fT0rl+//ta/bGhomJmZSVGUhIREYGBgYGCg8KPDhg3rdBQB/WSKopSV lSsqKkhYfXV0dF68eCHcQh+2QdR7jMFgbNiwYcOGDSSXboTPU59++imxB/7ShgwZEhAQEBAQIGiZ MmUKUQk7XWlVV1e3traWtG6kP30RO8ohISHCd62trQlcLd814RMiNzdX+G5YWFhYWBhKsQ/l6enp 5ubm7OwcFBQk/P0niMjQ0PBdp38pKCgcPXr0rcUSg8Ho9Ns3FEX5+Pj4+PjQtzu9sEeUlZW92VhQ UPDgwYOHDx8yGAxfX1/65KIuFkr4jxQXF/dIMAmsRgAAANCXCgoKQkJCcPTI4PSvf/2LyWTOnDmT w+E0Nzf3y29kEnRyBofDGTVqFFYLAACAAYzP5//999+PHz+OjIxEbwxCTCZz69at/ZuBoL2/2tra pH3fCgAA0O/27NnT6SqiPc7X1/fLL7/sm8VhMBifffaZl5fXuHHjRHl+eXm5iYlJF7+PACDG5S8A AAC8ae/evb1a/r5+/To5OfnkyZNkLr62tva+fftwoRJA+QsAADBYjB49+q0XPuopzc3NhP/IOZvN Ju28cED5CwAAAL0lKChI8PtQvaG1tZXwa6UzGIy2tjasCYDyFwAAYFDo1YuwUhR1//79Xt273H1j xowpLi5+609fAaD8BQAAgA+zdOlScn4M9a0UFBSWLFlC8hXoAeUvAAAAiA0fH5/o6GiSE7a1tcXG xq5evRqDBSh/AQAAoLsWL16clZVFcsIHDx5oaGgYGBhgsADlLwAAAHSXnJxcc3MzyQmbm5tlZWUx UoDyFwAAAHoAk8lsb28nOWF7ezuTycRIAcpfAAAA6AFycnLKysrh4eFkxqutrQ0ODp46dSpGCnqK JLoAAABgkEtNTc3Pzyczm7S0tJ+f35QpUz7itXw+n/CeJz/hgPTBe38lJCRaW1sHVR/xeDwJifd3 VD9+edTS0iLKt0JIiIRIiIRIiIRvJSsrK9i9SlpCNpvdqfYVPSGPxyO8xmhqahJlWfqr+hKxBBKL hN0qf6Wlpe/du0f++tSD3VpYWCgtLf3eZ7JYrOrq6qqqqj5OWFVV9fTpUxaLhYRIiIRIiIRIiITC CZ88eVJfX0/sHtYXL15UVlaKsiz9Un2JXgKJRUJhH3zwA5vNbmpqunHjBuGHyfcUJpMpLS3NZrNF +dyjoKBQVFRUWFjYlwmlpKSUlJRE+eiDhEiIhEiIhEg42BLevXuX2OtaiL4s/VJ9iV4CiUXCbpW/ FEXJysri+iPvGgYFBQUkREIkREIkREIkRMKeRX71JUb1Ia78AAAAAACDCMpfAAAAAED5CwAAACBW BsZZSYPk3Cqiy182m11bW4tu6uTly5dSUlL//PMPyQnl5eWREAmREAmREAkHT8InT54MgBrj2bNn LBaL2OqroaFBXl6e5PqQTtit8ldfXz83Nxf1bic5OTm6uro3b97s6OggMB6fz79+/bqFhQUSIiES IiESIuHgSZiamiruvyLB5/OTk5PHjh2bl5dHbAk0efJkfX19whN2q/z18vLavXt3W1sbSl6BFy9e HDx48LvvvlNQUEhKSiIwYWJioqqq6urVq5EQCZEQCZEQCQdVwt9++018K2A+n5+amqqqqurv7x8a GkrgURAvXrwIDw/38vLy8vIiPGHXT2N6e3vLyMi86+Fx48bJysr6+vpqa2traWmh9r1x44afn5+b m9vSpUtnzZq1f//+ysrKMWPGdNGHfamuri46OjolJSUmJkZJSQkJkRAJkRAJkXBQJdy1a1dlZaWe np6kpCSDwRCjAoPH40VGRiYnJ8fExBgbG9PV1+jRo3V0dEjY6S4pKZmVleXr6+vm5rZkyRJBfUhs wi6e+fr1a6q4uPj5+yQlJU2bNg21L0VR06ZNS0pKEn0wkyoAACAASURBVPRMSUkJl8sl54OBlpYW l8stKSlBQiREQiREQiREQjHy5rKQVn11KoHEIuFbFRcXi1T+njx50sLCQhyrVQsLi07V6tKlS7W1 tQmJp62tvXbt2k7vWyREQiREQiREwgGZED5o+EirvjrVVGKR8F3lL6O4uFhZWbmLvxUZGXngwIFN mzaNHj1aXV1djNakmpqax48f79q1y83Nzdvbu7y83N3d3cDAgMPhTJo0iYSEd+7cyczMzMjIiI2N 1dLSQkIkREIkREIk7PGElpaWBgYGqC8Jd+/evbS0NMHwkVZ9daqpCKwP30z4LnV1de8pfy9fvuzt 7Z2cnCwpKSmm61N9ff2qVat27twZFBS0YMECJycn0hImJiZevnz50qVLNjY2SIiESIiESIiEPZXQ zs5u4cKFqCzFCD1869evX79+PYHVF11ThYaGtrS0kFkfChJaW1t/fPlra2vr4uIye/Zs4cbGxsbm 5mYyL8vMZDKlpaU7/eT0tWvXoqOjX716dfr0aeFxam9vf/XqVUtLS18mlJKSYrPZTCZT0MLn8xct WuTq6hoVFYWESIiESIiESDiQEsJHDB+LxVqxYkW/V1/vqqkuXLjQ2NhIQn3YRcL4+Pguyt/31Oz3 79/fsWOHcAuPx5ORkTEyMiLkrM9OeDxeQUEBHVLQaGxsvGXLFkdHR+FZgM/nv3z5cvz48RoaGn2Z sKqq6q+//lJWVhackcpgMKZPn56RkTF16lQkREIkREIkRMKBlBA+dPgsLCxOnz5tZGTU79XXu2qq HTt2NDc3k1AfdpGw6xe+57q/TU1NKioqnVo+/fRTMmtfiqJkZGT09fV5PJ5wo7y8PI/HU1NTE25s bm4eOnRo388CGhoa6urqzc3Nwo0KCgoNDQ1IiIRIiIRIiIQDLCF86PApKSm1traSUH29q6aqq6sj pD7sImG3yt83dXR0SEtLk7wyycjIiLLjvb29ncVi9UtCFouFhEiIhEiIhEg4SBJC94evv6ovEWsq sUjYrfIXAAAAAEB8ofwFAIBu0dHRSUhIIDnhiBEjkpOTMVIAgPL3/wkICMjPz0c/AAB8hDNnzhD+ 00hnz541NzfHSAEATRJdQFGUqampn58fn89fvXq1vb29+F7kGACg75FfWXI4HAwTAAhg7y9FUdSC BQsuX768b9++9PT0KVOmhIaGok8AAAAAUP4OcGPHjrWwsFBSUsrOzkZvAAAAAKD8HbAqKiq2bdtm ZmZ28+bNiIiIs2fPok8AAESUlZVVW1tLeMLnz59jpAAA5e//4+HhMXz48PT09F27do0bNw4dAgAg Omdn57S0NMITZmZmYqRgcMrNzX316hX6QRjO8aIoirpw4QI6AQDg45w8eVJKSorkhE+ePMEwweDU 3t6+f/9+FxcXBwcH9AbKXwAA6BkPHz78+uuv0Q8fqqOjw8fH5812Pz8//DQx9JTbt2///PPPf/75 p42NDZvNRoeg/AUAgB7A5XLRCR9BQkIiLCwM/QC9p729/fDhwxRF5eXlXb161d7eHn3yf999ffA/ Ll68aGFhMWLECDMzs4CAgI6ODoqili9f/uavBKmoqDQ2NlIUFRQUNGHChNra2tjY2DNnzmCcROfj 46MoRE5ObuHChUQldHR09PDwENz9/vvvrays6LWCHJmZmXPnztXQ0Bg7duy6devq6+vJydbc3Kyh oXHr1i1BS0VFhaKi4rNnz8gJ6efnJycnp6ioqKCgoK2t7e3t3dbWRtQQGxkZffnll4K79fX1ioqK 5MTz9PSUk5MT/sq+pqZGXl4ehSYMEqgcekRubm5MTAx9e9u2bXRHkUBHR0dBQUFQq2hraw+08vfB gwdcLjcgIKCkpOTy5cuPHj3y9/d/15Pj4+OlpaUpijp48GBmZqaKikpJScnjx4+xBotu37599f/r 3r17SkpKixcvJipheHh4QkICfaJMYWHhkSNHIiIiJCQIOgvz9u3bixcvXrNmzaNHj65evVpbW7tu 3Tpy4klJSdnb258/f17QcuHChRkzZqiqqhI10J6envX19S9fvkxPT09MTBRMwURtX1NTU4l9L8vK yiYlJQmPsoyMDKY4GAxQOfSI9vb2I0eOCO7m5eX9/vvv5MRLT08XlCvl5eUDrfzNy8sbNWqUra0t i8VSUVEJCAjg8Xj0Q/fv37eystLV1RXsGfr8889fv369YsWKhoaG2bNnx8XFRUREHD169ODBg1iP P1Rra+vKlSudnZ1J2/urpaW1fft2Ly+vpqYmLy8vf39/XV1dohJ+++23W7dudXJyYrPZOjo6Bw8e LCoqamhoICfhF198ER8fz+fzBYURaaMsTFtbe/bs2RUVFaQF27Bhg4+Pj2BGIs3cuXOFd3QlJCTM nTsXMxsMBqgceqobT5w4IdyyY8eOpqYmYgPr6OiEh4ePHz/ewMDghx9+EO/y18LCorCwkMvlpqWl tbS0/Otf/zpw4AD9UGxs7Llz527cuHH+/Hnhi+ZER0fLyspev37dxcWFy+W6u7sTte9NXAQGBjY2 Nu7atYvAbK6urhoaGjY2NhISEl5eXkRla25uzsrKEj5DVkVF5caNG/Ly8uSEnDFjRktLy82bNymK evbs2a1btxYsWEDsqlhaWvrf//7X2tqatGDz5s0zNDTcuXMnmf1mZGRUWVlZXV1NUdTz588fP35s amqKmQ0GA1QO3ddp1y8tJyeHqB3Ab8rKyiosLDx8+PCmTZuam5vFuPzV1NTMy8uTk5Pz9vbW1NR0 dXUtKyujH3Jycvrkk09UVFQsLCyIOrZyAEhJSYmMjDxx4gT9lRBpGAyGu7t7fn7+qlWriDrsgaKo iooKSUlJZWVlkseXyWQ6OzvHx8dTFHXp0qXp06cTGPjQoUP0QV36+voGBgbGxsYE9mRoaGhUVFRh YSGZbxMHBwf6+IeLFy/a2dmR9mYBQOVArLy8vOjo6Dfbg4ODCdkBbGFhITj295dffqEbXV1dJSUl LS0tlZWVe/VaxX0xmWpra+/evTs3Nzc7O1tKSsrOzo5uNzAwEGzLsab2oMrKytWrV+/du3f8+PFk JmxqagoICFi0aNG2bduIOqiAoqgRI0a0trbW1dUJN8bGxvb9kUldW7hwYXx8fEdHR1JSkouLC4Gj TB/7W19fX1paqqKiQuY5W5qamn5+fuvXryft5Euao6MjffxDQkICrtkJgwoqh+7o6Oh418EDWVlZ 165dIyGk8LG/ixYtohv19PT6Znx7vfzlcrn79u2jb48cOTIsLKyyspI+ChB7MnpDW1ubm5ubnZ3d smXLiA0ZEBAwduzYyMhIfX39//znP0Rlk5GRmTRpkvAxl7W1tatWrRIcaEuIqVOnslisX3/9NSMj Y/78+SSvk6qqqitWrPjjjz/IjLd27dqmpqa37ibpd6ampuXl5UVFRYWFhdOmTcP8BoMEKoduysvL O3bs2LseJfkIYAaD0Tf/qNev++vk5OTp6Tlx4sRp06a1tbUdPnx43LhxWlpaov+FXj34Y+DZtm1b bW3tm5eGIUdaWlpMTEx2djZFUXv37jUxMXF0dCTqwNCQkJAvvvhCUVFx7ty5NTU13t7ec+bM0dHR Ia0nP//882+++cbS0pKoK3a96fnz5zExMfr6+mTGYzKZYWFhZH6EYDAYCxYs8PT0tLW1xVYfBg9U Dt3Rxa5fGr0DWLBDfXDq9fl0zpw5Bw8e3L59+6hRo/T19fPy8mJjY0V/OYfDOXXqFC4MLrrjx48X FRVpaWmp/C8nJydy4jU2NnK53MDAQPoif5qamoGBgfS35OSE5HA4J0+eDA8PHz16NF34Hj16lMCx /vzzz8vKysg88oGiqCNHjtBroK6ubllZGcnvYhMTE2K/LXFwcMjIyHB0dMTkBoMHKofuuHPnTlRU VNfP2blzJ7EXvekbffGrb3Pnzn3zej3CFwEV3K6pqel0w9LSsqioCHOB6ATnB5CJzWZ3Os1o7dq1 a9euJS3nrFmzZs2aRfhY6+np9eqZAd0REhISEhJCcu/l5uYK392zZ8+ePXvIiXfo0CH6hrm5uWCU PT09McXBIIHK4eN0dHRERES892mZmZl//PFHP15L8a21inBjcXFxrwbAt2kAAAAAA4Eou35pO3fu fP369aDtKJS/AAAAAGLvvUf9CktPTyfkEhAofwEAAADgY9y9ezcyMlL05w/mHcAofwEAAADEW0dH x48//vhBL0lPT79+/TrKXwAAAAAQP/n5+R9xkaKQkJDBuQMY5W9nd+7c+Z//+R/0AwAAAIiFj9j1 S/vjjz8G5w5gSaw0tNbW1sTExKNHj7JYLAKvwwUAAADwVhISEocPHz58+DC6AuXvB9i5c+f58+dt bGwOHz48ZswYdAgAAPSZqVOnNjU1DRs2LDU1Fb0BgPK3j2RlZbHZ7EmTJn3QbyoCAAB0382bN9EJ AH0Jx/5SFEXFx8f/8MMP2dnZpqam27Ztq6ioQJ8AAIiioaEhMzOzo6OD8IR8Ph+DBQAof/8/urq6 u3fvzsjIUFdXX7duHToEAEAUf/75p62tLY/HIzxhS0sLBgsAUP6+hZyc3OrVqxMTE9EVAACiMDMz +89//iMtLU1ywlevXklJSWGwAADlLwAAdFd1dbWuri6TyURXAADKXwAAGPiGDx++cOFC9AMADOTy V0JCorW1leRF4vF4EhLvXy4mk9ne3t4vCVtaWkTZU4KESIiESIiESDgAEkL3h6+/qi8RayqxSNit 8ldaWvrevXvEnuXA4/EKCwtFOQqNxWJVV1dXVVX1ccKqqqqnT5+yWCwkREIkREIkRMIBnxB6ZPj6 pfoSvaYSi4TCPvi6v2w2u6mp6caNG2R+iGQymdLS0mw2W5SPKQoKCkVFRYWFhX2ZUEpKSklJSZRP KkiIhEiIhEiIhOKeEHpk+Pql+hK9phKLhN0qfymKkpWVlZWVHQCrHZPJVFBQQEIkREIkREIkREIg HPnVlxjVhzj1DQAAAAAGEZS/AAAAAIDyFwAAAABgEJa/bDa7trZW3BeyoaFBSkrqn3/+ITbhy5cv 5eXlkRAJkRAJkRAJB0NC6EJ9fT2LxSK2+mpoaJCXlye5PqQTdqv81dfXz8vLE/c1KScnR1dX9+bN mx0dHQTG4/P5169ft7CwQEIkREIkREIkHPAJoevhS0tLGzt2LLHVV05OzuTJk0muD+mE3Sp/vby8 QkNDxfpC2S9evAgPD//uu+8UFBSSkpIITJiYmKiqqrp69WokREIkREIkRMIeTBgfH4+CUrwkJCSo qqr6+/uTWX3RNZWXlxex9aEgYddPY3p7e8vIyLzr4XHjxsnKyvr6+o4ePVpHR0e8PkdKSkpmZWX5 +vq6ubktXbp01qxZ+/fvr6ysHDNmTBeL3Jfq6uqio6NTUlJiYmKUlJSQEAmREAmREAl7MGFYWFh5 ebmOjs5HXBgV+tjff/8dHR2dmpoaExNjbGxMWvUlXFMtWbKEwPqwU8Iunvn69WuquLj4+fskJSVN mzZNHFemadOmJSUlCRakpKSEy+VqaWkREk9LS4vL5ZaUlCAhEiIhEiIhEg74hPBBw0da9dWpphKL hG9VXFwsUvl78uRJCwsLcVyZLCwsOpW/S5cu1dbWFrsF0dbWXrt2rfC7AoMCAAPJm7McZmzM2INq UDp1NRL2SMJ3lb+M4uJiZWXlLv5WZGTkgQMHNm3aNHr0aHV1dTFa12tqah4/frxr1y43Nzdvb+/y 8nJ3d3cDAwMOhzNp0iTxet/euXMnMzMzIyMjNjZWS0tr4A2KpaWlgYEBKgCAQevevXtpaWmCWQ4z Njajg2pQOnU1gdWXOCZ8l7q6uveUv5cvX/b29k5OTpaUlKTEU319/apVq3bu3BkUFLRgwQInJyfx 3TwkJiZevnx5/fr169evHzCDYmdnt3DhQmz7AUAwy126dMnGxgYzNjajg21Q6K4ODQ1taWkhs/oS o4TW1tYfX/7a2tq6uLjMnj1buLGxsbG5uZnMy0EwmUxpaelOPzl97dq16OjoV69enT59Wnic2tvb X7161dLSQua7VEpKis1mM5lMQQufz1+0aBGLxVqxYgUGBQDE3btmOVdX16ioKMzYmLEH9qC8q6sv XLjQ2NhIQvUl1gm7uOxJXV3de2r2+/fv79ixQ7iFx+PJyMgYGRkRcqJrJzwer6CggA4paDQ2Nt6y ZYujo6Pwm5bP5798+XL8+PEaGhpkvm+rqqr++usvZWVlBoNBtzAYjOnTp586dcrIyAiDAgDi7q2z nIWFRUZGxtSpUzFjY8Ye2IPyrq7esWNHc3MzCdWXWCfs+oXvue5vU1OTiopKp5ZPP/2UzDctRVEy MjL6+vo8Hk+4UV5ensfjqampCTc2NzcPHTqU5DJLQ0NDXV29ublZuFFBQaG1tRWDAgADwFtnOSUl pYaGBszYmLEH/KC8q6vr6uoIqb7EOmG3yt83dXR0SEtLkzyfysjIiLLjvb29ncViEb5tYLFYoiwL BgUAxJSIsxxmbMzYA3JQROxqJOyRhN0qfwEAAAAAxBfKXwAAAABA+QsAAAAAgPIXAAAAAADlLwAA AAAAyl8AAAAAAJS/AAAAADAIdXR0oPwFAAAAGIBev36dmpqKfuhk3bp1d+7c6fciGOUvAAAAQA8X vp999pmdnV2f/dPU1FTJj+Lh4dGXxeiPP/5oYmLi6emZl5fXj0Uwyl8AAACAnil8U1JS5s6da2dn 98cff/Tlv54+ffqMGTM+4oWrV6+WkOjravDo0aOmpqZr167Nzc3tlyIY5S8AAABAt/B4PLrwnT9/ fnp6et8HkJaW9vPz+9BXubu7Gxoa9lenRUZGmpmZcbncvi+C+7T8rays/PLLL8eOHTtixAgnJ6e/ /vqLbnd2dn7zyYsXL05OTiZq5fb09JSTk3vy5ImgpaamRl5ensvlivJyDodz//59Yt+6FRUVcnJy X375paDl0KFD9HspNjb2zJkzmN0AQIycPn1aTk7uxx9/fHOzEhgYWFBQINgwrV69WldXV11dffr0 6XFxcYTkP3PmjJycXGxsrHCjiYmJnp7ewBig6OhoDoczdOhQfX39vXv30o1v3dzk5+dzOBxiF6Sp qenSpUtz5szpr8JXYPr06RYWFh/0kn7Z9dtJVFQUXQTfvn27z4rgvlvmhoYGGxsbfX39GzduFBQU mJmZOTs783g8iqKuXr3a6cktLS1kruWysrJJSUmCuxcuXJCRkRkYM1FcXJy5uXlKSsqrV686PVRS UvL48WNsTQFAjJw7d47D4by1nL19+3ZdXR1FUS9fvrS3tx82bNhvv/12//59b29vf3//ThVnc3Nz P25xEhISBHcfPHhQXl4+MEYnPDz84MGDYWFhFRUVx48fP3XqFP1B5c3NTT/2v4iF7+zZs+3t7TMz M/s9j7S09Lfffiv681etWjVx4kRCOjMqKmrKlClr1qzJyclpb28fOOXvvn37pk2b5ufnp6ampqys 7O/vr6+vn5OT8/nnn7e3t5uZmbW0tCxevPjYsWPGxsYXLlwgc12fO3eu8GSUkJAwd+5c+nZdXd2K FSt0dHQmTpz4yy+/0I3Xr183NTUdNWqUj49Pa2sr4ZsKPz8/fX39ixcvCrf/+uuvERERR48ePXjw IDaoACAWnj9/npGR8dNPP+Xk5FRWVgo/FBwcnJ2dzeVyMzMzt23bZmZmtnXrVm1tbRUVFRcXl4iI iOLiYoqi8vPz582bt3XrVhsbm/5aiqlTp2ZnZwt2SQhvcSiKOnLkiJ6enr6+/pYtW/h8PkVRy5cv Dw4O1tPTGzt27Pr169vb2zMzM21tbennZ2dnC273++gEBwfHxMSYmppKSUmZmJiEhISkp6cLb25I 6P+uC9/k5GS68M3KyiIn2MyZM0XfAbxmzZp+3/XbybFjx6ZOnbp69ereLoL7brHT0tIcHByEW2Jj Yy0tLc+ePctkMrOzs1ksFkVRkZGRcXFxLi4uZE6pRkZGlZWV1dXV9Bv48ePHpqam9EP+/v4yMjIP Hz48ceLExo0bHzx48OLFi6VLl27evPnRo0cqKip//vknsZuKoqKimpqaWbNmLVy4sNPOktmzZ3O5 XHd393Xr1mGbCgBiITExcc6cOdra2rNnz46Pjxd+yN/f38zMLCIigsPhZGRkLFq0SPhRKysrf39/ +vbt27fl5eV///33/loKFotlbW195coV+m5SUpJgM3r16tVDhw5duXLlxo0bt27dCg8Pp9tPnz79 xx9/ZGZmJiUlpaWlkTk6d+/e1dbWHj9+vKDFxsbmxIkTnTY3/d7/b9XY2HjhwgUrKytHR0eiCl+a 6DuA3dzcJk2aROYaEh0dPXXqVHd391u3bvVSEdx35W9paam6uvp7n7Z48eKRI0cSO6UyGAwHBwf6 +IeLFy/a2dkJPjklJCRs3rxZSkpq4sSJLi4uSUlJ165dMzAwcHBwkJSU9PX1lZWVJXa5YmNjFy9e zGQynZ2df//99xcvXmDzCQDiKzY2dtmyZRRFvfmRvtOGSUVFhb7t7u6u8r8E1ae3t/eQIUP6cUEc HR3p8r20tLStrW3cuHF0+5kzZ7766itNTU15eXk3N7ezZ8/S7c7OzqqqqkOHDp02bRqxM7mI9QAJ /d+p8E1KSpo5c6aTk1NOTg6xK/+MGTNEOVSay+WStuu3kxMnTpibm69atSo7O7vHi+C+W3ItLa2a mhrhlrS0tJs3b3Z6moaGBuGzqqOjI338Q0JCguCDeGNjY2Nj44gRIwQL+/Tp05qaGh0dHbpFSkpq +PDhxC5UXFzc0aNHdXR0pk6d+vr1a9JOOgQAEF11dXV6evqqVat0dHS8vb1zcnJKS0vf+sxRo0YJ jjQ9evRobW1tRUWF4GDTYcOG9Xt9YG1tffPmzaamJuEtDkVRlZWVx48fNzMzMzMz27179yeffEK3 C06MYzKZnf4UfYAECd6sBxobGyMjIzsdIkhC/9NevXqVmJg4c+ZMZ2fnvLw8wtd/GRmZ9+4AJnnX bycxMTEcDsfV1TU3N1csy9+pU6cKHzVLUdSmTZuKioo6B5Ig/Vpspqam5eXlRUVFhYWF06ZNoxvZ bLasrGxVVRV9t6qqSl1dfdiwYWVlZXTLixcvSkpKyFyi/Pz8Fy9eVFdXl5WVlZWVhYaGCnYkAACI nfPnz7u4uFRUVJSVlT158sTe3v7cuXNvfaaVlVVUVJRwi/BX7SRsj1gs1syZM69cuZKUlOTo6Cho Hzp0aGBgYHZ2dnZ29uXLl4ODg+l2BoPR6S8ITqV/9OgRIQM0ceLEkpISwdWf6G7fvXt3px295NQD Dx8+jIuLI7/wFZg5c+aUKVO6eAKBR/12YfLkyS4uLrq6umJZ/vr6+l6/fj04OPjZs2fPnj0LDAx8 /vz5ggUL6EdJPrWzEwaDsWDBAk9PT1tbW+G1x8HBYceOHa2trYWFhWfPnv3ss89mzpx57969ixcv dnR0/PDDD4T8zvWb4uLi7OzsBJOmnZ3dtWvXnj17JvwcMRogABjk6DlNcNfOzu78+fOdnkPPaRs2 bPjrr798fHzKy8ubm5tTUlKCgoIkJSWJWhwnJ6cjR468ePHi008/FTTa29vv37+/urq6rq7O1dW1 094lAQUFhTt37lRUVLx+/TomJoaQJVJTU9u4cePy5ctv3brV0tKSnZ3t5+cnuIQogZsbIyOjY8eO ZWZmLl++XCzeArKyst999927HnV1dZ08ebK4FL7nz5+/du2ag4ODnJycWJa/ysrKqampubm5xsbG kydPzs/PT0xMVFRUpChq3rx5hoaGxF7s7E0ODg4ZGRnCH8Qpitq5c2dDQ8O4ceOWLFkSEhKip6en qKgYExMTGBg4duzYyspKa2trMhfn3Llz8+fPF9zV0dGZMGFCYmKioIXD4Zw6dSosLAybVQAgXFlZ WW5urvAlDubMmXPv3r0HDx4IWqytrdesWZORkaGkpJSenv7y5Uv6upw///xzXFzcF198QdQSWVtb 5+fndzp33NnZ2dHRcdasWZMmTdLU1Ny4ceNbX6unp8flcm1sbEaOHDlhwgRyFmrjxo1ubm5cLnfE iBHu7u7u7u5eXl4kb26YTKaZmVlkZOSNGze++uor8t8IXewAFotdvyYmJvHx8deuXbO3t2ez2T3+ 9/v0M+7o0aPf+q264BrXwhe7JvB3Fg4dOkTfMDc3F1yJxtPTk77xySefnDx58s31j+QD5GmFhYWd WjqdzWppafnmYSoAAATS0dHpdMqXmppaQ0OD8GbFx8fHx8eHvj106NDIyEjh59MXoDU0NMzOzu7H BVm8ePHixYspipKWln769CndaGhoSM/YDAbDz8+v0698Ce/fPX78OH1j+/bt27dvJ22YGAyGh4eH h4dHp3bhzY2g/w0NDUm4qi5dBJuamhoZGXl4eBw5ciQ6OprYN4KsrKy/v3+n/XQURa1YsYLwXb9T pkzx9/e3srLq1QsG4EePAQAAAD6gCDYxMfnxxx9v3rzp6upKbE4rKysTE5NOjWvXrn3ztEhyCt+k pKRff/11/vz5vX2xLJS/AAAAAB9TBP/www9ZWVlubm4EJnzzCOCvvvqKzF2/HA6HLnzt7Oz65iqx KH8BAAAAPqqKkpAwNjaOiIjIzs4msAi2srISrncJ3PVrYWGRnJx85cqVPit8Uf4CAAAA9EARbGRk RBfBq1atIicYm83esmULfXv58uVGRkakFb4pKSlz586VkZHp6yHDWgsAAADQI0XwkSNHbt265e7u Tkgqa2tregewh4cHIbt+Z8yYcenSJbrwlZaW7pcMklhfAQAAAHqqCJ48efKhQ4fWrFlDX0Wkf7HZ 7M2bN8fFxRkbG5PQP5cuXZo+fXp/Vb0ofwEAAAB6qwieNGnSwYMHSQhjbW2tpaVFyK5f4Wty9+cA YR0FAAAA6I0imIQYcnJyRB31i/IXAAAAAADlELprMQAAA49JREFULwAAAAAAyl8AAAAAAJS/AAAA AAAofwEAAAAAUP4CAAAAAMrfD3mBhERrayvJi8Tj8US51AiTyWxvbyd8eFpaWkS5UB8GBQDElIiz HGZszNgDclBE7Gok7JGE3Sp/paWl7927x+PxiH3TFhYWivJrIiwWq7q6uqqqitg3bVVV1dOnT1ks FgYFAAYk0Wc5zNiYsQfeoIje1UjYIwmFffCvvrHZ7Kamphs3bpD5mY/JZEpLS7PZbFE+pigoKBQV FRUWFpL5vpWSklJSUhLlMw0GBQDEkeizHGZszNgDb1BE72ok7JGE3Sp/KYqSlZWVlZUdADMvk8lU UFAYGFsRDAoADGyYsTEog3xQkLAH4dQ3AAAAABhEUP4CAAAAAMpfAAAAAIBBWP6y2eza2lpxX8iG hgYpKal//vlnAAzYy5cvWSwWBgUABqr6+np5eXnM2JixB+egNDQ0yMvLk1x9iUvCbpW/+vr6eXl5 4r6u5+Tk6Orq3rx5s6OjQ6wXhM/nX79+fezYsRgUABiQ+Hx+WlqahYUFZmzM2INzUHJyciZPnkxy 9SUuCbtV/np5eYWGhor1LxG8ePEiPDz8u+++U1BQSEpKEuv3bWJioqqqqr+//0AalPj4eGzyAYCW kJCgqqq6evVqzNjYjA7CQaG72svLi9jqS4wSdv00pre3t4yMzLseHjdunKysrK+v7+jRo3V0dMTr Y5+kpGRWVpavr6+bm9vSpUtnzZq1f//+ysrKMWPGdLHIZKqrq4uOjk5JSYmJiTE2Nh5IgxIWFlZe Xq6jo/MR1+0DgAHj77//jo6OTk1NjYmJUVJSwoyNzeigGhThrl6yZAmB1ZfYJezima9fv6aKi4uf v09SUtK0adPEcT6dNm1aUlKSYEFKSkq4XK6WlpbYLYiWlhaXyy0pKcGgAMCA9OYshxkbM/agGpRO XY2EPZLwrYqLixnFxcXKysqYeQEAAABgwKurq8OFzwAAAABgEEH5CwAAAAAofwEAAAAABmr5y+fz 0REAAAAAMLDRF6mQkJSUFOvrEQIAAAAAiFj+SkpKSsjLy/N4PHQHAAAAAAxsPB5PQUFBQllZmc/n t7a2okcAAAAAYKBqbm6mKEpJSYnB5/Pb29srKysZDIaMjIykpCR6BwAAAAAGjLa2Nvpgh+HDhw8Z MoQhOO+trq6uoaGhra0NfQQAAAAAA4akpKS8vLzgh97+Dwq4M5glUXSFAAAAAElFTkSuQmCC "
       id="image186"
       x="-27.816973"
       y="117.1899" /><path
       style="fill:none;stroke:#0080ff;stroke-width:0.79375;stroke-linecap:butt;stroke-linejoin:miter;stroke-dasharray:none;stroke-opacity:1"
       d="m 124.83628,129.0138 -166.392656,0"
       id="path411"
       sodipodi:nodetypes="cc" /><path
       style="fill:none;stroke:#0080ff;stroke-width:0.79375;stroke-linecap:butt;stroke-linejoin:miter;stroke-dasharray:none;stroke-opacity:1"
       d="m 119.98226,148.38939 -161.538636,0"
       id="path411-3"
       sodipodi:nodetypes="cc" /><path
       style="fill:none;stroke:#0080ff;stroke-width:0.79375;stroke-linecap:butt;stroke-linejoin:miter;stroke-dasharray:none;stroke-opacity:1"
       d="m 127.07198,167.76498 -168.628356,0"
       id="path411-6"
       sodipodi:nodetypes="cc" /><path
       style="fill:none;stroke:#0080ff;stroke-width:0.79375;stroke-linecap:butt;stroke-linejoin:miter;stroke-dasharray:none;stroke-opacity:1"
       d="m 134.17704,187.14057 -175.733416,0"
       id="path411-7"
       sodipodi:nodetypes="cc" /><path
       style="fill:none;stroke:#0080ff;stroke-width:0.79375;stroke-linecap:butt;stroke-linejoin:miter;stroke-dasharray:none;stroke-opacity:1"
       d="m 123.58204,206.51616 -165.138416,0"
       id="path411-5"
       sodipodi:nodetypes="cc" /><path
       style="fill:none;stroke:#0080ff;stroke-width:0.79375;stroke-linecap:butt;stroke-linejoin:miter;stroke-dasharray:none;stroke-opacity:1"
       d="m 315.00896,206.51616 -169.45508,0"
       id="path411-35"
       sodipodi:nodetypes="cc" /><path
       style="fill:none;stroke:#0080ff;stroke-width:0.79375;stroke-linecap:butt;stroke-linejoin:miter;stroke-dasharray:none;stroke-opacity:1"
       d="m 102.96394,225.89175 -144.520316,0"
       id="path411-62"
       sodipodi:nodetypes="cc" /><path
       style="fill:none;stroke:#0080ff;stroke-width:0.79375;stroke-linecap:butt;stroke-linejoin:miter;stroke-dasharray:none;stroke-opacity:1"
       d="m 315.00896,225.89175 -132.18911,0"
       id="path411-9"
       sodipodi:nodetypes="cc" /><path
       style="fill:none;stroke:#0080ff;stroke-width:0.79375;stroke-linecap:butt;stroke-linejoin:miter;stroke-dasharray:none;stroke-opacity:1"
       d="m 315.00896,148.38939 -177.02783,0"
       id="path411-1"
       sodipodi:nodetypes="cc" /><path
       style="fill:none;stroke:#0080ff;stroke-width:0.79375;stroke-linecap:butt;stroke-linejoin:miter;stroke-dasharray:none;stroke-opacity:1"
       d="m 315.00896,167.76498 -168.68386,0"
       id="path411-2"
       sodipodi:nodetypes="cc" /><path
       style="fill:none;stroke:#0080ff;stroke-width:0.79375;stroke-linecap:butt;stroke-linejoin:miter;stroke-dasharray:none;stroke-opacity:1"
       d="m 315.00896,187.14057 -163.33263,0"
       id="path411-70"
       sodipodi:nodetypes="cc" /><path
       style="fill:none;stroke:#0080ff;stroke-width:0.79375;stroke-linecap:butt;stroke-linejoin:miter;stroke-dasharray:none;stroke-opacity:1"
       d="m 315.00896,129.0138 -165.15731,0"
       id="path411-93"
       sodipodi:nodetypes="cc" /><path
       style="fill:none;stroke:#ff0000;stroke-width:0.79375;stroke-linecap:butt;stroke-linejoin:miter;stroke-dasharray:none;stroke-opacity:1"
       d="M -13.456181,251.14567 V 86.16079 H 291.11202 v 164.98488"
       id="path1232"
       sodipodi:nodetypes="cccc" /><path
       style="fill:none;stroke:#ff0000;stroke-width:0.79375;stroke-linecap:butt;stroke-linejoin:miter;stroke-dasharray:none;stroke-opacity:1"
       d="M 10.377684,251.14567 10.588064,223.96992 8.3072534,206.66984 18.931247,187.11289 12.73207,167.19515 3.1041396,148.60353 8.3105019,128.10311 V 91.363081 H 272.20516 V 251.14567"
       id="path1234"
       sodipodi:nodetypes="cccccccccc" /><path
       style="fill:none;stroke:#ff0000;stroke-width:0.79375;stroke-linecap:butt;stroke-linejoin:miter;stroke-dasharray:none;stroke-opacity:1"
       d="m 252.02505,251.14567 v -83.17518 l -8.54647,-19.64826 9.10905,-19.25704 V 97.553985 H 28.518993 v 31.592755 l -5.454565,19.27123 10.715297,20.00874 4.402658,19.03248 -10.370179,19.28896 6.836235,18.66017 v 25.73735"
       id="path1236"
       sodipodi:nodetypes="ccccccccccccc" /><path
       style="fill:none;stroke:#ff0000;stroke-width:0.79375;stroke-linecap:butt;stroke-linejoin:miter;stroke-dasharray:none;stroke-opacity:1"
       d="m 48.364635,251.14567 v -44.95775 l 8.69303,-19.34214 -4.852969,-18.4427 -11.26962,-20.66117 6.771228,-19.56316 v -26.6606 H 227.69873 v 27.82006 l -14.25988,18.98639 10.19408,18.91783 4.36483,19.99693 5.33164,18.99938 v 19.65063 25.2563"
       id="path1238"
       sodipodi:nodetypes="ccccccccccccccc" /><path
       style="fill:none;stroke:#ff0000;stroke-width:0.79375;stroke-linecap:butt;stroke-linejoin:miter;stroke-dasharray:none;stroke-opacity:1"
       d="M 64.874894,251.14567 V 206.03309 L 76.517999,187.45565 70.886145,167.8783 61.610427,148.4097 66.484672,128.78862 V 105.4894 H 209.3695 v 23.29095 l -14.38398,19.48279 10.239,19.66835 4.64256,18.94502 -10.54981,19.94728 7.5052,19.34806 v 24.97382"
       id="path1240"
       sodipodi:nodetypes="ccccccccccccccc" /><path
       style="fill:none;stroke:#ff0000;stroke-width:0.79375;stroke-linecap:butt;stroke-linejoin:miter;stroke-dasharray:none;stroke-opacity:1"
       d="M 83.897916,251.14567 V 207.0389 L 94.768047,186.72759 89.814616,167.47527 79.9633,148.71581 89.70706,128.91154 v -20.17658 h 101.43249 v 20.87864 l -14.92412,19.00529 10.13261,18.9923 3.70532,19.3315 -11.0746,19.67663 4.31756,19.59744 v 24.92891"
       id="path1242"
       sodipodi:nodetypes="ccccccccccccccc" /><path
       style="fill:none;stroke:#ff0000;stroke-width:0.79375;stroke-linecap:butt;stroke-linejoin:miter;stroke-dasharray:none;stroke-opacity:1"
       d="m 102.7992,251.14567 v -44.4708 l 11.44927,-20.15649 -4.97352,-19.32796 -10.305171,-19.12348 10.043971,-19.02303 v -16.19468 h 62.67374 v 15.06004 l -14.82602,20.42596 9.37972,19.14595 4.70878,19.39178 -9.70239,20.12103 v 44.15168"
       id="path1244"
       sodipodi:nodetypes="cccccccccccccc" /><path
       style="fill:none;stroke:#ff0000;stroke-width:0.79375;stroke-linecap:butt;stroke-linejoin:miter;stroke-dasharray:none;stroke-opacity:1"
       d="m 121.80331,251.14567 v -44.96366 l 10.71649,-18.90602 -5.14136,-18.88592 -8.21672,-19.76881 5.49357,-19.52889 v -12.54609 h 23.12666 v 11.76484 l -9.43055,20.17422 7.63639,19.6849 5.75714,18.95211 -6.15308,19.37287 v 44.65045"
       id="path1246"
       sodipodi:nodetypes="cccccccccccccc" /><circle
       style="fill:#0000ff;stroke:#ff0000;stroke-width:0.79375;stroke-linecap:round;stroke-linejoin:round;stroke-dasharray:none;stroke-opacity:1"
       id="path1300"
       cx="-13.461964"
       cy="129.06815"
       r="1.1127789" /><circle
       style="fill:#0000ff;stroke:#ff0000;stroke-width:0.79375;stroke-linecap:round;stroke-linejoin:round;stroke-dasharray:none;stroke-opacity:1"
       id="path1300-6"
       cx="8.175765"
       cy="129.06755"
       r="1.1127789" /><circle
       style="fill:#0000ff;stroke:#ff0000;stroke-width:0.79375;stroke-linecap:round;stroke-linejoin:round;stroke-dasharray:none;stroke-opacity:1"
       id="path1300-0"
       cx="28.523724"
       cy="129.21884"
       r="1.1127789" /><circle
       style="fill:#0000ff;stroke:#ff0000;stroke-width:0.79375;stroke-linecap:round;stroke-linejoin:round;stroke-dasharray:none;stroke-opacity:1"
       id="path1300-62"
       cx="47.585751"
       cy="128.84062"
       r="1.1127789" /><circle
       style="fill:#0000ff;stroke:#ff0000;stroke-width:0.79375;stroke-linecap:round;stroke-linejoin:round;stroke-dasharray:none;stroke-opacity:1"
       id="path1300-61"
       cx="66.572136"
       cy="129.06755"
       r="1.1127789" /><circle
       style="fill:#0000ff;stroke:#ff0000;stroke-width:0.79375;stroke-linecap:round;stroke-linejoin:round;stroke-dasharray:none;stroke-opacity:1"
       id="path1300-8"
       cx="61.730988"
       cy="148.5078"
       r="1.1127789" /><circle
       style="fill:#0000ff;stroke:#ff0000;stroke-width:0.79375;stroke-linecap:round;stroke-linejoin:round;stroke-dasharray:none;stroke-opacity:1"
       id="path1300-7"
       cx="41.156097"
       cy="148.20523"
       r="1.1127789" /><circle
       style="fill:#0000ff;stroke:#ff0000;stroke-width:0.79375;stroke-linecap:round;stroke-linejoin:round;stroke-dasharray:none;stroke-opacity:1"
       id="path1300-9"
       cx="23.001787"
       cy="148.43216"
       r="1.1127789" /><circle
       style="fill:#0000ff;stroke:#ff0000;stroke-width:0.79375;stroke-linecap:round;stroke-linejoin:round;stroke-dasharray:none;stroke-opacity:1"
       id="path1300-2"
       cx="3.2589724"
       cy="148.65909"
       r="1.1127789" /><circle
       style="fill:#0000ff;stroke:#ff0000;stroke-width:0.79375;stroke-linecap:round;stroke-linejoin:round;stroke-dasharray:none;stroke-opacity:1"
       id="path1300-02"
       cx="-13.458122"
       cy="148.5078"
       r="1.1127789" /><circle
       style="fill:#0000ff;stroke:#ff0000;stroke-width:0.79375;stroke-linecap:round;stroke-linejoin:round;stroke-dasharray:none;stroke-opacity:1"
       id="path1300-3"
       cx="-13.458122"
       cy="168.02368"
       r="1.1127789" /><circle
       style="fill:#0000ff;stroke:#ff0000;stroke-width:0.79375;stroke-linecap:round;stroke-linejoin:round;stroke-dasharray:none;stroke-opacity:1"
       id="path1300-75"
       cx="12.789987"
       cy="168.02368"
       r="1.1127789" /><circle
       style="fill:#0000ff;stroke:#ff0000;stroke-width:0.79375;stroke-linecap:round;stroke-linejoin:round;stroke-dasharray:none;stroke-opacity:1"
       id="path1300-92"
       cx="33.516159"
       cy="168.02368"
       r="1.1127789" /><circle
       style="fill:#0000ff;stroke:#ff0000;stroke-width:0.79375;stroke-linecap:round;stroke-linejoin:round;stroke-dasharray:none;stroke-opacity:1"
       id="path1300-28"
       cx="52.048687"
       cy="167.94804"
       r="1.1127789" /><circle
       style="fill:#0000ff;stroke:#ff0000;stroke-width:0.79375;stroke-linecap:round;stroke-linejoin:round;stroke-dasharray:none;stroke-opacity:1"
       id="path1300-97"
       cx="70.883789"
       cy="167.79675"
       r="1.1127789" /><circle
       style="fill:#0000ff;stroke:#ff0000;stroke-width:0.79375;stroke-linecap:round;stroke-linejoin:round;stroke-dasharray:none;stroke-opacity:1"
       id="path1300-36"
       cx="-13.533766"
       cy="187.38828"
       r="1.1127789" /><circle
       style="fill:#0000ff;stroke:#ff0000;stroke-width:0.79375;stroke-linecap:round;stroke-linejoin:round;stroke-dasharray:none;stroke-opacity:1"
       id="path1300-1"
       cx="18.99271"
       cy="187.237"
       r="1.1127789" /><circle
       style="fill:#0000ff;stroke:#ff0000;stroke-width:0.79375;stroke-linecap:round;stroke-linejoin:round;stroke-dasharray:none;stroke-opacity:1"
       id="path1300-29"
       cx="38.206024"
       cy="187.46393"
       r="1.1127789" /><circle
       style="fill:#0000ff;stroke:#ff0000;stroke-width:0.79375;stroke-linecap:round;stroke-linejoin:round;stroke-dasharray:none;stroke-opacity:1"
       id="path1300-31"
       cx="57.041119"
       cy="187.16135"
       r="1.1127789" /><circle
       style="fill:#0000ff;stroke:#ff0000;stroke-width:0.79375;stroke-linecap:round;stroke-linejoin:round;stroke-dasharray:none;stroke-opacity:1"
       id="path1300-94"
       cx="64.90799"
       cy="206.4503"
       r="1.1127789" /><circle
       style="fill:#0000ff;stroke:#ff0000;stroke-width:0.79375;stroke-linecap:round;stroke-linejoin:round;stroke-dasharray:none;stroke-opacity:1"
       id="path1300-78"
       cx="48.493465"
       cy="206.67723"
       r="1.1127789" /><circle
       style="fill:#0000ff;stroke:#ff0000;stroke-width:0.79375;stroke-linecap:round;stroke-linejoin:round;stroke-dasharray:none;stroke-opacity:1"
       id="path1300-4"
       cx="27.994223"
       cy="206.75288"
       r="1.1127789" /><circle
       style="fill:#0000ff;stroke:#ff0000;stroke-width:0.79375;stroke-linecap:round;stroke-linejoin:round;stroke-dasharray:none;stroke-opacity:1"
       id="path1300-5"
       cx="8.2514086"
       cy="206.52596"
       r="1.1127789" /><circle
       style="fill:#0000ff;stroke:#ff0000;stroke-width:0.79375;stroke-linecap:round;stroke-linejoin:round;stroke-dasharray:none;stroke-opacity:1"
       id="path1300-03"
       cx="-13.609408"
       cy="206.82852"
       r="1.1127789" /><circle
       style="fill:#0000ff;stroke:#ff0000;stroke-width:0.79375;stroke-linecap:round;stroke-linejoin:round;stroke-dasharray:none;stroke-opacity:1"
       id="path1300-610"
       cx="-13.458122"
       cy="226.11748"
       r="1.1127789" /><circle
       style="fill:#0000ff;stroke:#ff0000;stroke-width:0.79375;stroke-linecap:round;stroke-linejoin:round;stroke-dasharray:none;stroke-opacity:1"
       id="path1300-63"
       cx="10.520698"
       cy="226.11748"
       r="1.1127789" /><circle
       style="fill:#0000ff;stroke:#ff0000;stroke-width:0.79375;stroke-linecap:round;stroke-linejoin:round;stroke-dasharray:none;stroke-opacity:1"
       id="path1300-20"
       cx="34.877731"
       cy="225.89055"
       r="1.1127789" /><circle
       style="fill:#0000ff;stroke:#ff0000;stroke-width:0.79375;stroke-linecap:round;stroke-linejoin:round;stroke-dasharray:none;stroke-opacity:1"
       id="path1300-615"
       cx="89.858994"
       cy="129.02409"
       r="1.1127789" /><circle
       style="fill:#0000ff;stroke:#ff0000;stroke-width:0.79375;stroke-linecap:round;stroke-linejoin:round;stroke-dasharray:none;stroke-opacity:1"
       id="path1300-76"
       cx="108.9006"
       cy="129.13107"
       r="1.1127789" /><circle
       style="fill:#0000ff;stroke:#ff0000;stroke-width:0.79375;stroke-linecap:round;stroke-linejoin:round;stroke-dasharray:none;stroke-opacity:1"
       id="path1300-56"
       cx="124.73295"
       cy="129.02409"
       r="1.1127789" /><circle
       style="fill:#0000ff;stroke:#ff0000;stroke-width:0.79375;stroke-linecap:round;stroke-linejoin:round;stroke-dasharray:none;stroke-opacity:1"
       id="path1300-93"
       cx="147.94659"
       cy="128.81015"
       r="1.1127789" /><circle
       style="fill:#0000ff;stroke:#ff0000;stroke-width:0.79375;stroke-linecap:round;stroke-linejoin:round;stroke-dasharray:none;stroke-opacity:1"
       id="path1300-74"
       cx="171.26721"
       cy="129.13107"
       r="1.1127789" /><circle
       style="fill:#0000ff;stroke:#ff0000;stroke-width:0.79375;stroke-linecap:round;stroke-linejoin:round;stroke-dasharray:none;stroke-opacity:1"
       id="path1300-52"
       cx="191.05763"
       cy="129.34503"
       r="1.1127789" /><circle
       style="fill:#0000ff;stroke:#ff0000;stroke-width:0.79375;stroke-linecap:round;stroke-linejoin:round;stroke-dasharray:none;stroke-opacity:1"
       id="path1300-54"
       cx="195.01573"
       cy="148.49361"
       r="1.1127789" /><circle
       style="fill:#0000ff;stroke:#ff0000;stroke-width:0.79375;stroke-linecap:round;stroke-linejoin:round;stroke-dasharray:none;stroke-opacity:1"
       id="path1300-744"
       cx="176.40202"
       cy="148.60059"
       r="1.1127789" /><circle
       style="fill:#0000ff;stroke:#ff0000;stroke-width:0.79375;stroke-linecap:round;stroke-linejoin:round;stroke-dasharray:none;stroke-opacity:1"
       id="path1300-30"
       cx="157.03949"
       cy="148.60059"
       r="1.1127789" /><circle
       style="fill:#0000ff;stroke:#ff0000;stroke-width:0.79375;stroke-linecap:round;stroke-linejoin:round;stroke-dasharray:none;stroke-opacity:1"
       id="path1300-786"
       cx="138.63974"
       cy="148.60059"
       r="1.1127789" /><circle
       style="fill:#0000ff;stroke:#ff0000;stroke-width:0.79375;stroke-linecap:round;stroke-linejoin:round;stroke-dasharray:none;stroke-opacity:1"
       id="path1300-88"
       cx="119.38418"
       cy="148.27965"
       r="1.1127789" /><circle
       style="fill:#0000ff;stroke:#ff0000;stroke-width:0.79375;stroke-linecap:round;stroke-linejoin:round;stroke-dasharray:none;stroke-opacity:1"
       id="path1300-43"
       cx="98.951897"
       cy="148.60059"
       r="1.1127789" /><circle
       style="fill:#0000ff;stroke:#ff0000;stroke-width:0.79375;stroke-linecap:round;stroke-linejoin:round;stroke-dasharray:none;stroke-opacity:1"
       id="path1300-14"
       cx="80.231216"
       cy="148.70755"
       r="1.1127789" /><circle
       style="fill:#0000ff;stroke:#ff0000;stroke-width:0.79375;stroke-linecap:round;stroke-linejoin:round;stroke-dasharray:none;stroke-opacity:1"
       id="path1300-920"
       cx="89.965965"
       cy="167.9631"
       r="1.1127789" /><circle
       style="fill:#0000ff;stroke:#ff0000;stroke-width:0.79375;stroke-linecap:round;stroke-linejoin:round;stroke-dasharray:none;stroke-opacity:1"
       id="path1300-68"
       cx="109.22153"
       cy="167.9631"
       r="1.1127789" /><circle
       style="fill:#0000ff;stroke:#ff0000;stroke-width:0.79375;stroke-linecap:round;stroke-linejoin:round;stroke-dasharray:none;stroke-opacity:1"
       id="path1300-926"
       cx="127.08641"
       cy="167.9631"
       r="1.1127789" /><circle
       style="fill:#0000ff;stroke:#ff0000;stroke-width:0.79375;stroke-linecap:round;stroke-linejoin:round;stroke-dasharray:none;stroke-opacity:1"
       id="path1300-64"
       cx="146.12801"
       cy="168.07008"
       r="1.1127789" /><circle
       style="fill:#0000ff;stroke:#ff0000;stroke-width:0.79375;stroke-linecap:round;stroke-linejoin:round;stroke-dasharray:none;stroke-opacity:1"
       id="path1300-95"
       cx="166.34634"
       cy="167.9631"
       r="1.1127789" /><circle
       style="fill:#0000ff;stroke:#ff0000;stroke-width:0.79375;stroke-linecap:round;stroke-linejoin:round;stroke-dasharray:none;stroke-opacity:1"
       id="path1300-04"
       cx="186.4577"
       cy="168.28404"
       r="1.1127789" /><circle
       style="fill:#0000ff;stroke:#ff0000;stroke-width:0.79375;stroke-linecap:round;stroke-linejoin:round;stroke-dasharray:none;stroke-opacity:1"
       id="path1300-87"
       cx="76.380104"
       cy="187.43262"
       r="1.1127789" /><circle
       style="fill:#0000ff;stroke:#ff0000;stroke-width:0.79375;stroke-linecap:round;stroke-linejoin:round;stroke-dasharray:none;stroke-opacity:1"
       id="path1300-17"
       cx="94.67289"
       cy="187.21867"
       r="1.1127789" /><circle
       style="fill:#0000ff;stroke:#ff0000;stroke-width:0.79375;stroke-linecap:round;stroke-linejoin:round;stroke-dasharray:none;stroke-opacity:1"
       id="path1300-27"
       cx="114.24937"
       cy="187.00471"
       r="1.1127789" /><circle
       style="fill:#0000ff;stroke:#ff0000;stroke-width:0.79375;stroke-linecap:round;stroke-linejoin:round;stroke-dasharray:none;stroke-opacity:1"
       id="path1300-22"
       cx="132.54214"
       cy="187.5396"
       r="1.1127789" /><circle
       style="fill:#0000ff;stroke:#ff0000;stroke-width:0.79375;stroke-linecap:round;stroke-linejoin:round;stroke-dasharray:none;stroke-opacity:1"
       id="path1300-6106"
       cx="121.95158"
       cy="206.58119"
       r="1.1127789" /><circle
       style="fill:#0000ff;stroke:#ff0000;stroke-width:0.79375;stroke-linecap:round;stroke-linejoin:round;stroke-dasharray:none;stroke-opacity:1"
       id="path1300-15"
       cx="102.80301"
       cy="206.58119"
       r="1.1127789" /><circle
       style="fill:#0000ff;stroke:#ff0000;stroke-width:0.79375;stroke-linecap:round;stroke-linejoin:round;stroke-dasharray:none;stroke-opacity:1"
       id="path1300-949"
       cx="84.189308"
       cy="206.79515"
       r="1.1127789" /><circle
       style="fill:#0000ff;stroke:#ff0000;stroke-width:0.79375;stroke-linecap:round;stroke-linejoin:round;stroke-dasharray:none;stroke-opacity:1"
       id="path1300-09"
       cx="145.91406"
       cy="206.79515"
       r="1.1127789" /><circle
       style="fill:#0000ff;stroke:#ff0000;stroke-width:0.79375;stroke-linecap:round;stroke-linejoin:round;stroke-dasharray:none;stroke-opacity:1"
       id="path1300-177"
       cx="161.7464"
       cy="206.79515"
       r="1.1127789" /><circle
       style="fill:#0000ff;stroke:#ff0000;stroke-width:0.79375;stroke-linecap:round;stroke-linejoin:round;stroke-dasharray:none;stroke-opacity:1"
       id="path1300-11"
       cx="178.96942"
       cy="206.68817"
       r="1.1127789" /><circle
       style="fill:#0000ff;stroke:#ff0000;stroke-width:0.79375;stroke-linecap:round;stroke-linejoin:round;stroke-dasharray:none;stroke-opacity:1"
       id="path1300-59"
       cx="183.46239"
       cy="226.26465"
       r="1.1127789" /><circle
       style="fill:#0000ff;stroke:#ff0000;stroke-width:0.79375;stroke-linecap:round;stroke-linejoin:round;stroke-dasharray:none;stroke-opacity:1"
       id="path1300-77"
       cx="190.09486"
       cy="187.11169"
       r="1.1127789" /><circle
       style="fill:#0000ff;stroke:#ff0000;stroke-width:0.79375;stroke-linecap:round;stroke-linejoin:round;stroke-dasharray:none;stroke-opacity:1"
       id="path1300-67"
       cx="171.05325"
       cy="187.00471"
       r="1.1127789" /><circle
       style="fill:#0000ff;stroke:#ff0000;stroke-width:0.79375;stroke-linecap:round;stroke-linejoin:round;stroke-dasharray:none;stroke-opacity:1"
       id="path1300-365"
       cx="151.90468"
       cy="187.21867"
       r="1.1127789" /><circle
       style="fill:#0000ff;stroke:#ff0000;stroke-width:0.79375;stroke-linecap:round;stroke-linejoin:round;stroke-dasharray:none;stroke-opacity:1"
       id="path1300-639"
       cx="213.62943"
       cy="148.49361"
       r="1.1127789" /><circle
       style="fill:#0000ff;stroke:#ff0000;stroke-width:0.79375;stroke-linecap:round;stroke-linejoin:round;stroke-dasharray:none;stroke-opacity:1"
       id="path1300-48"
       cx="243.47554"
       cy="148.60059"
       r="1.1127789" /><circle
       style="fill:#0000ff;stroke:#ff0000;stroke-width:0.79375;stroke-linecap:round;stroke-linejoin:round;stroke-dasharray:none;stroke-opacity:1"
       id="path1300-12"
       cx="272.25189"
       cy="148.49361"
       r="1.1127789" /><circle
       style="fill:#0000ff;stroke:#ff0000;stroke-width:0.79375;stroke-linecap:round;stroke-linejoin:round;stroke-dasharray:none;stroke-opacity:1"
       id="path1300-939"
       cx="272.35886"
       cy="167.9631"
       r="1.1127789" /><circle
       style="fill:#0000ff;stroke:#ff0000;stroke-width:0.79375;stroke-linecap:round;stroke-linejoin:round;stroke-dasharray:none;stroke-opacity:1"
       id="path1300-08"
       cx="272.35886"
       cy="187.5396"
       r="1.1127789" /><circle
       style="fill:#0000ff;stroke:#ff0000;stroke-width:0.79375;stroke-linecap:round;stroke-linejoin:round;stroke-dasharray:none;stroke-opacity:1"
       id="path1300-85"
       cx="290.97256"
       cy="148.60059"
       r="1.1127789" /><circle
       style="fill:#0000ff;stroke:#ff0000;stroke-width:0.79375;stroke-linecap:round;stroke-linejoin:round;stroke-dasharray:none;stroke-opacity:1"
       id="path1300-096"
       cx="291.29349"
       cy="167.53522"
       r="1.1127789" /><circle
       style="fill:#0000ff;stroke:#ff0000;stroke-width:0.79375;stroke-linecap:round;stroke-linejoin:round;stroke-dasharray:none;stroke-opacity:1"
       id="path1300-38"
       cx="291.18652"
       cy="187.32564"
       r="1.1127789" /><circle
       style="fill:#0000ff;stroke:#ff0000;stroke-width:0.79375;stroke-linecap:round;stroke-linejoin:round;stroke-dasharray:none;stroke-opacity:1"
       id="path1300-561"
       cx="291.29349"
       cy="206.68817"
       r="1.1127789" /><circle
       style="fill:#0000ff;stroke:#ff0000;stroke-width:0.79375;stroke-linecap:round;stroke-linejoin:round;stroke-dasharray:none;stroke-opacity:1"
       id="path1300-159"
       cx="291.40048"
       cy="225.94373"
       r="1.1127789" /><circle
       style="fill:#0000ff;stroke:#ff0000;stroke-width:0.79375;stroke-linecap:round;stroke-linejoin:round;stroke-dasharray:none;stroke-opacity:1"
       id="path1300-84"
       cx="272.35886"
       cy="226.0507"
       r="1.1127789" /><circle
       style="fill:#0000ff;stroke:#ff0000;stroke-width:0.79375;stroke-linecap:round;stroke-linejoin:round;stroke-dasharray:none;stroke-opacity:1"
       id="path1300-81"
       cx="272.14493"
       cy="206.68817"
       r="1.1127789" /><circle
       style="fill:#0000ff;stroke:#ff0000;stroke-width:0.79375;stroke-linecap:round;stroke-linejoin:round;stroke-dasharray:none;stroke-opacity:1"
       id="path1300-030"
       cx="251.81961"
       cy="167.9631"
       r="1.1127789" /><circle
       style="fill:#0000ff;stroke:#ff0000;stroke-width:0.79375;stroke-linecap:round;stroke-linejoin:round;stroke-dasharray:none;stroke-opacity:1"
       id="path1300-44"
       cx="223.57812"
       cy="167.74916"
       r="1.1127789" /><circle
       style="fill:#0000ff;stroke:#ff0000;stroke-width:0.79375;stroke-linecap:round;stroke-linejoin:round;stroke-dasharray:none;stroke-opacity:1"
       id="path1300-447"
       cx="205.28535"
       cy="168.07008"
       r="1.1127789" /><circle
       style="fill:#0000ff;stroke:#ff0000;stroke-width:0.79375;stroke-linecap:round;stroke-linejoin:round;stroke-dasharray:none;stroke-opacity:1"
       id="path1300-631"
       cx="209.99226"
       cy="187.00471"
       r="1.1127789" /><circle
       style="fill:#0000ff;stroke:#ff0000;stroke-width:0.79375;stroke-linecap:round;stroke-linejoin:round;stroke-dasharray:none;stroke-opacity:1"
       id="path1300-759"
       cx="228.07109"
       cy="187.21867"
       r="1.1127789" /><circle
       style="fill:#0000ff;stroke:#ff0000;stroke-width:0.79375;stroke-linecap:round;stroke-linejoin:round;stroke-dasharray:none;stroke-opacity:1"
       id="path1300-621"
       cx="199.50868"
       cy="206.90213"
       r="1.1127789" /><circle
       style="fill:#0000ff;stroke:#ff0000;stroke-width:0.79375;stroke-linecap:round;stroke-linejoin:round;stroke-dasharray:none;stroke-opacity:1"
       id="path1300-785"
       cx="206.88998"
       cy="226.37163"
       r="1.1127789" /><circle
       style="fill:#0000ff;stroke:#ff0000;stroke-width:0.79375;stroke-linecap:round;stroke-linejoin:round;stroke-dasharray:none;stroke-opacity:1"
       id="path1300-741"
       cx="233.2059"
       cy="225.72977"
       r="1.1127789" /><circle
       style="fill:#0000ff;stroke:#ff0000;stroke-width:0.79375;stroke-linecap:round;stroke-linejoin:round;stroke-dasharray:none;stroke-opacity:1"
       id="path1300-859"
       cx="251.92659"
       cy="226.0507"
       r="1.1127789" /><circle
       style="fill:#0000ff;stroke:#ff0000;stroke-width:0.79375;stroke-linecap:round;stroke-linejoin:round;stroke-dasharray:none;stroke-opacity:1"
       id="path1300-753"
       cx="209.24344"
       cy="129.13107"
       r="1.1127789" /><circle
       style="fill:#0000ff;stroke:#ff0000;stroke-width:0.79375;stroke-linecap:round;stroke-linejoin:round;stroke-dasharray:none;stroke-opacity:1"
       id="path1300-883"
       cx="227.85713"
       cy="128.91713"
       r="1.1127789" /><circle
       style="fill:#0000ff;stroke:#ff0000;stroke-width:0.79375;stroke-linecap:round;stroke-linejoin:round;stroke-dasharray:none;stroke-opacity:1"
       id="path1300-18"
       cx="252.67542"
       cy="128.91713"
       r="1.1127789" /><circle
       style="fill:#0000ff;stroke:#ff0000;stroke-width:0.79375;stroke-linecap:round;stroke-linejoin:round;stroke-dasharray:none;stroke-opacity:1"
       id="path1300-96"
       cx="272.35886"
       cy="129.02409"
       r="1.1127789" /><circle
       style="fill:#0000ff;stroke:#ff0000;stroke-width:0.79375;stroke-linecap:round;stroke-linejoin:round;stroke-dasharray:none;stroke-opacity:1"
       id="path1300-433"
       cx="291.07956"
       cy="129.02409"
       r="1.1127789" /><circle
       style="fill:#0000ff;stroke:#ff0000;stroke-width:0.79375;stroke-linecap:round;stroke-linejoin:round;stroke-dasharray:none;stroke-opacity:1"
       id="path1300-386"
       cx="233.31288"
       cy="206.47423"
       r="1.1127789" /><circle
       style="fill:#0000ff;stroke:#ff0000;stroke-width:0.79375;stroke-linecap:round;stroke-linejoin:round;stroke-dasharray:none;stroke-opacity:1"
       id="path1300-048"
       cx="103.01696"
       cy="226.15768"
       r="1.1127789" /><text
       xml:space="preserve"
       transform="matrix(0.26458333,0,0,0.26458333,-71.093335,82.168915)"
       id="text560"
       style="font-style:normal;font-weight:normal;font-size:29.3333px;line-height:1.25;font-family:sans-serif;letter-spacing:0px;word-spacing:0px;white-space:pre;shape-inside:url(#rect562);display:inline;fill:#000000;fill-opacity:1;stroke:none"><tspan
         x="177.03125"
         y="674.25583"
         id="tspan864">PF4     PF1    PF0 PF5 PF6  PF7  PB7  PB5</tspan></text><text
       xml:space="preserve"
       transform="matrix(0.26458333,0,0,0.26458333,-65.89879,85.933335)"
       id="text618"
       style="font-style:normal;font-weight:normal;font-size:29.3333px;line-height:1.25;font-family:sans-serif;letter-spacing:0px;word-spacing:0px;white-space:pre;shape-inside:url(#rect620);display:inline;fill:#000000;fill-opacity:1;stroke:none"><tspan
         x="18.751953"
         y="171.41599"
         id="tspan866">PD6
</tspan><tspan
         x="18.751953"
         y="208.08261"
         id="tspan868">
</tspan><tspan
         x="18.751953"
         y="244.74924"
         id="tspan870">PB6
</tspan><tspan
         x="18.751953"
         y="281.41586"
         id="tspan872">
</tspan><tspan
         x="18.751953"
         y="318.08249"
         id="tspan874">PB4
</tspan><tspan
         x="18.751953"
         y="354.74912"
         id="tspan876">
</tspan><tspan
         x="18.751953"
         y="391.41574"
         id="tspan878">PD7
</tspan><tspan
         x="18.751953"
         y="428.08237"
         id="tspan880">
</tspan><tspan
         x="18.751953"
         y="464.74899"
         id="tspan882">PC6
</tspan><tspan
         x="18.751953"
         y="501.41562"
         id="tspan884">
</tspan><tspan
         x="18.751953"
         y="538.08225"
         id="tspan886">PC7</tspan></text><text
       xml:space="preserve"
       transform="matrix(0.26458333,0,0,0.26458333,312.16807,86.79689)"
       id="text618-6"
       style="font-style:normal;font-weight:normal;font-size:29.3333px;line-height:1.25;font-family:sans-serif;letter-spacing:0px;word-spacing:0px;white-space:pre;shape-inside:url(#rect620-3);display:inline;fill:#000000;fill-opacity:1;stroke:none"><tspan
         x="18.751953"
         y="171.41599"
         id="tspan888">PD4
</tspan><tspan
         x="18.751953"
         y="208.08261"
         id="tspan890">
</tspan><tspan
         x="18.751953"
         y="244.74924"
         id="tspan892">PD5
</tspan><tspan
         x="18.751953"
         y="281.41586"
         id="tspan894">
</tspan><tspan
         x="18.751953"
         y="318.08249"
         id="tspan896">PD3
</tspan><tspan
         x="18.751953"
         y="354.74912"
         id="tspan898">
</tspan><tspan
         x="18.751953"
         y="391.41574"
         id="tspan900">PD1
</tspan><tspan
         x="18.751953"
         y="428.08237"
         id="tspan902">
</tspan><tspan
         x="18.751953"
         y="464.74899"
         id="tspan904">PD2
</tspan><tspan
         x="18.751953"
         y="501.41562"
         id="tspan906">
</tspan><tspan
         x="18.751953"
         y="538.08225"
         id="tspan908">PD0</tspan></text></g></svg>
